"","Gene_id","Gene_name","Cluster"
"1","ENSG00000006283","CACNA1G",1
"2","ENSG00000101327","PDYN",1
"3","ENSG00000102466","FGF14",1
"4","ENSG00000126583","PRKCG",1
"5","ENSG00000139190","VAMP1",1
"6","ENSG00000141837","CACNA1A",1
"7","ENSG00000205090","TMEM240",1
"8","ENSG00000163635","ATXN7",1
"9","ENSG00000131095","GFAP",1
"10","ENSG00000171385","KCND3",1
"11","ENSG00000066427","ATXN3",2
"12","ENSG00000103089","FA2H",2
"13","ENSG00000130638","ATXN10",2
"14","ENSG00000129250","KIF1C",2
"15","ENSG00000130816","DNMT1",2
"16","ENSG00000141385","AFG3L2",2
"17","ENSG00000230223","ATXN8OS",2
"18","ENSG00000101361","NOP56",2
"19","ENSG00000166948","TGM6",2
"20","ENSG00000128881","TTBK2",3
"21","ENSG00000111676","ATN1",3
"22","ENSG00000124788","ATXN1",3
"23","ENSG00000173898","SPTBN2",3
"24","ENSG00000204842","ATXN2",3
"25","ENSG00000012660","ELOVL5",3
"26","ENSG00000118402","ELOVL4",3
"27","ENSG00000166546","BEAN1",3
"28","ENSG00000184381","PLA2G6",3
"29","ENSG00000068615","REEP1",3
"30","ENSG00000156475","PPP2R2B",3
