"","Source","Target","Zscore"
"1","ENSG00000047457","ENSG00000066427",-1.2524957504992
"2","ENSG00000047457","ENSG00000075239",0.944925852182632
"3","ENSG00000047457","ENSG00000103089",0.709782708455494
"4","ENSG00000047457","ENSG00000104833",2.03601995085195
"5","ENSG00000047457","ENSG00000105409",1.27008530183186
"6","ENSG00000047457","ENSG00000114054",-0.781038531041308
"7","ENSG00000047457","ENSG00000123191",-0.571854900828201
"8","ENSG00000047457","ENSG00000125779",-1.43664878702156
"9","ENSG00000047457","ENSG00000127990",2.5718252634994
"10","ENSG00000047457","ENSG00000129250",0.243045838389058
"11","ENSG00000047457","ENSG00000131931",-0.558281404390367
"12","ENSG00000047457","ENSG00000131943",1.61579456663974
"13","ENSG00000047457","ENSG00000136143",0.287254573982679
"14","ENSG00000047457","ENSG00000136827",-0.86374084187513
"15","ENSG00000047457","ENSG00000142319",0.296520313982719
"16","ENSG00000047457","ENSG00000146085",-0.781131164898355
"17","ENSG00000047457","ENSG00000147133",0.81099493598809
"18","ENSG00000047457","ENSG00000150787",0.147169394064151
"19","ENSG00000047457","ENSG00000173175",2.08871804180572
"20","ENSG00000047457","ENSG00000175198",0.229941390274976
"21","ENSG00000047457","ENSG00000196660",2.19636205191506
"22","ENSG00000047457","ENSG00000198695",-0.304888611909445
"23","ENSG00000047457","ENSG00000272333",-1.38063819721068
"24","ENSG00000047457","ENSG00000078369",0.638142234373389
"25","ENSG00000047457","ENSG00000087086",1.34323893991856
"26","ENSG00000047457","ENSG00000105607",-1.116430764603
"27","ENSG00000047457","ENSG00000115827",-1.95484970722529
"28","ENSG00000047457","ENSG00000116096",-0.346016865010052
"29","ENSG00000047457","ENSG00000126953",0.385302300529282
"30","ENSG00000047457","ENSG00000131979",0.832292757738129
"31","ENSG00000047457","ENSG00000132437",0.534755491900087
"32","ENSG00000047457","ENSG00000134343",1.94684271895604
"33","ENSG00000047457","ENSG00000135917",2.56241329743854
"34","ENSG00000047457","ENSG00000141404",1.59028428704956
"35","ENSG00000047457","ENSG00000151552",-1.22524388785697
"36","ENSG00000047457","ENSG00000160710",-0.571100964598026
"37","ENSG00000047457","ENSG00000165704",1.51593886244785
"38","ENSG00000047457","ENSG00000170266",-0.573382219163792
"39","ENSG00000047457","ENSG00000176165",1.24088183836405
"40","ENSG00000047457","ENSG00000180176",1.49124084809555
"41","ENSG00000047457","ENSG00000180228",-0.228804007378248
"42","ENSG00000047457","ENSG00000184381",-2.38054248954888
"43","ENSG00000047457","ENSG00000196998",-0.73536944032245
"44","ENSG00000066427","ENSG00000075239",1.05614277137162
"45","ENSG00000066427","ENSG00000103089",2.00212839230127
"46","ENSG00000066427","ENSG00000104833",0.378242591133206
"47","ENSG00000066427","ENSG00000105409",2.62608141386894
"48","ENSG00000066427","ENSG00000114054",-0.540663925283026
"49","ENSG00000066427","ENSG00000123191",-0.684215947890374
"50","ENSG00000066427","ENSG00000125779",2.42676795645533
"51","ENSG00000066427","ENSG00000127990",-1.89108486012388
"52","ENSG00000066427","ENSG00000129250",0.905074268678067
"53","ENSG00000066427","ENSG00000131931",1.02570220702961
"54","ENSG00000066427","ENSG00000131943",0.234909175860272
"55","ENSG00000066427","ENSG00000136143",4.65201486240586
"56","ENSG00000066427","ENSG00000136827",-1.8939615983078
"57","ENSG00000066427","ENSG00000142319",1.78616904186925
"58","ENSG00000066427","ENSG00000146085",-0.495792485278418
"59","ENSG00000066427","ENSG00000147133",1.33348882173124
"60","ENSG00000066427","ENSG00000150787",-0.994860677608567
"61","ENSG00000066427","ENSG00000173175",0.36821753733686
"62","ENSG00000066427","ENSG00000175198",0.662877614761925
"63","ENSG00000066427","ENSG00000196660",-1.29904688716627
"64","ENSG00000066427","ENSG00000198695",1.34824288759127
"65","ENSG00000066427","ENSG00000272333",2.49842427522274
"66","ENSG00000066427","ENSG00000078369",-1.68241182064887
"67","ENSG00000066427","ENSG00000087086",-0.441462024186401
"68","ENSG00000066427","ENSG00000105607",-0.876175667560368
"69","ENSG00000066427","ENSG00000115827",0.771675422806439
"70","ENSG00000066427","ENSG00000116096",-0.89515687467386
"71","ENSG00000066427","ENSG00000126953",-0.0666038873778273
"72","ENSG00000066427","ENSG00000131979",0.533300453943518
"73","ENSG00000066427","ENSG00000132437",1.44294726826006
"74","ENSG00000066427","ENSG00000134343",-0.31274282750934
"75","ENSG00000066427","ENSG00000135917",-0.428372810966152
"76","ENSG00000066427","ENSG00000141404",-0.472009857964911
"77","ENSG00000066427","ENSG00000151552",0.0421586345346878
"78","ENSG00000066427","ENSG00000160710",-1.77580870224369
"79","ENSG00000066427","ENSG00000165704",0.189822933325304
"80","ENSG00000066427","ENSG00000170266",-1.25007549009787
"81","ENSG00000066427","ENSG00000176165",-1.59506024201906
"82","ENSG00000066427","ENSG00000180176",1.6109217115959
"83","ENSG00000066427","ENSG00000180228",-0.35350486430737
"84","ENSG00000066427","ENSG00000184381",0.978362982561168
"85","ENSG00000066427","ENSG00000196998",1.11309230342331
"86","ENSG00000075239","ENSG00000103089",1.45459488594896
"87","ENSG00000075239","ENSG00000104833",1.44659843560864
"88","ENSG00000075239","ENSG00000105409",0.104224542134865
"89","ENSG00000075239","ENSG00000114054",8.14537124613411
"90","ENSG00000075239","ENSG00000123191",1.36805257424765
"91","ENSG00000075239","ENSG00000125779",0.759413844477007
"92","ENSG00000075239","ENSG00000127990",0.341996010481283
"93","ENSG00000075239","ENSG00000129250",1.97644020133967
"94","ENSG00000075239","ENSG00000131931",1.31909619742579
"95","ENSG00000075239","ENSG00000131943",2.55045494828463
"96","ENSG00000075239","ENSG00000136143",3.51892461337356
"97","ENSG00000075239","ENSG00000136827",-0.199867959262357
"98","ENSG00000075239","ENSG00000142319",2.0321554738514
"99","ENSG00000075239","ENSG00000146085",5.53685033667016
"100","ENSG00000075239","ENSG00000147133",0.760292466466961
"101","ENSG00000075239","ENSG00000150787",5.67801755880072
"102","ENSG00000075239","ENSG00000173175",-0.185077915459716
"103","ENSG00000075239","ENSG00000175198",4.10173653398753
"104","ENSG00000075239","ENSG00000196660",1.09250908040941
"105","ENSG00000075239","ENSG00000198695",2.14504529153786
"106","ENSG00000075239","ENSG00000272333",0.72722570723202
"107","ENSG00000075239","ENSG00000078369",-0.701485978041198
"108","ENSG00000075239","ENSG00000087086",0.53786428616089
"109","ENSG00000075239","ENSG00000105607",2.86140366929244
"110","ENSG00000075239","ENSG00000115827",-0.751668089217841
"111","ENSG00000075239","ENSG00000116096",1.46023853495921
"112","ENSG00000075239","ENSG00000126953",-0.978283470780695
"113","ENSG00000075239","ENSG00000131979",-0.726406755335833
"114","ENSG00000075239","ENSG00000132437",0.323789128462367
"115","ENSG00000075239","ENSG00000134343",-1.27408746836994
"116","ENSG00000075239","ENSG00000135917",-0.424426030469826
"117","ENSG00000075239","ENSG00000141404",-2.05830299092723
"118","ENSG00000075239","ENSG00000151552",3.9601036132744
"119","ENSG00000075239","ENSG00000160710",0.195048593046847
"120","ENSG00000075239","ENSG00000165704",-0.271145138648797
"121","ENSG00000075239","ENSG00000170266",1.19182537606006
"122","ENSG00000075239","ENSG00000176165",-1.19140762851321
"123","ENSG00000075239","ENSG00000180176",0.396532128979722
"124","ENSG00000075239","ENSG00000180228",0.108304283297043
"125","ENSG00000075239","ENSG00000184381",0.051305062105436
"126","ENSG00000075239","ENSG00000196998",0.0271200105923772
"127","ENSG00000103089","ENSG00000104833",2.56008733457601
"128","ENSG00000103089","ENSG00000105409",1.68088089743175
"129","ENSG00000103089","ENSG00000114054",1.46633035221649
"130","ENSG00000103089","ENSG00000123191",-0.331741479603123
"131","ENSG00000103089","ENSG00000125779",0.560613640898268
"132","ENSG00000103089","ENSG00000127990",1.2962419542407
"133","ENSG00000103089","ENSG00000129250",1.36084238430238
"134","ENSG00000103089","ENSG00000131931",1.07239552723928
"135","ENSG00000103089","ENSG00000131943",-3.40068362529333
"136","ENSG00000103089","ENSG00000136143",1.6672700147246
"137","ENSG00000103089","ENSG00000136827",0.656115852828638
"138","ENSG00000103089","ENSG00000142319",1.40796260573291
"139","ENSG00000103089","ENSG00000146085",1.37271421097822
"140","ENSG00000103089","ENSG00000147133",-0.730595839308498
"141","ENSG00000103089","ENSG00000150787",0.84058743142731
"142","ENSG00000103089","ENSG00000173175",0.165904174373331
"143","ENSG00000103089","ENSG00000175198",2.21639209139701
"144","ENSG00000103089","ENSG00000196660",-0.0846349155086769
"145","ENSG00000103089","ENSG00000198695",-0.301044281877843
"146","ENSG00000103089","ENSG00000272333",0.300492286912823
"147","ENSG00000103089","ENSG00000078369",-0.195132423407617
"148","ENSG00000103089","ENSG00000087086",-0.572114945746183
"149","ENSG00000103089","ENSG00000105607",-0.566809883144339
"150","ENSG00000103089","ENSG00000115827",-1.25298042932837
"151","ENSG00000103089","ENSG00000116096",1.10706209274695
"152","ENSG00000103089","ENSG00000126953",-1.19505796620796
"153","ENSG00000103089","ENSG00000131979",0.391949884491876
"154","ENSG00000103089","ENSG00000132437",2.57962363785801
"155","ENSG00000103089","ENSG00000134343",0.818609207741945
"156","ENSG00000103089","ENSG00000135917",1.00418453054162
"157","ENSG00000103089","ENSG00000141404",-0.182935328086656
"158","ENSG00000103089","ENSG00000151552",-0.219203779291049
"159","ENSG00000103089","ENSG00000160710",0.92565695895866
"160","ENSG00000103089","ENSG00000165704",-0.323290489262716
"161","ENSG00000103089","ENSG00000170266",-0.398722284354315
"162","ENSG00000103089","ENSG00000176165",0.947214525539529
"163","ENSG00000103089","ENSG00000180176",1.06072937847598
"164","ENSG00000103089","ENSG00000180228",0.758849634608943
"165","ENSG00000103089","ENSG00000184381",1.15159093775031
"166","ENSG00000103089","ENSG00000196998",-0.0220321841692965
"167","ENSG00000104833","ENSG00000105409",8.61014569826738
"168","ENSG00000104833","ENSG00000114054",1.27525234441444
"169","ENSG00000104833","ENSG00000123191",1.16443486038839
"170","ENSG00000104833","ENSG00000125779",-1.54791376621422
"171","ENSG00000104833","ENSG00000127990",0.710218144939676
"172","ENSG00000104833","ENSG00000129250",-0.586507772789357
"173","ENSG00000104833","ENSG00000131931",0.771664047192675
"174","ENSG00000104833","ENSG00000131943",0.847630367359411
"175","ENSG00000104833","ENSG00000136143",1.65510449428813
"176","ENSG00000104833","ENSG00000136827",-0.146423594931122
"177","ENSG00000104833","ENSG00000142319",1.14233378088911
"178","ENSG00000104833","ENSG00000146085",-1.7543662253704
"179","ENSG00000104833","ENSG00000147133",-2.46778645320486
"180","ENSG00000104833","ENSG00000150787",0.571800589400613
"181","ENSG00000104833","ENSG00000173175",-0.0944922344494223
"182","ENSG00000104833","ENSG00000175198",-0.477989061469338
"183","ENSG00000104833","ENSG00000196660",1.61420793607254
"184","ENSG00000104833","ENSG00000198695",0.808435957097321
"185","ENSG00000104833","ENSG00000272333",-1.07490097066879
"186","ENSG00000104833","ENSG00000078369",2.19482228034156
"187","ENSG00000104833","ENSG00000087086",-1.85138011383781
"188","ENSG00000104833","ENSG00000105607",-0.212533007689158
"189","ENSG00000104833","ENSG00000115827",-0.696427500285565
"190","ENSG00000104833","ENSG00000116096",2.1349174553975
"191","ENSG00000104833","ENSG00000126953",0.312024968580098
"192","ENSG00000104833","ENSG00000131979",1.23868309370763
"193","ENSG00000104833","ENSG00000132437",1.51893670751725
"194","ENSG00000104833","ENSG00000134343",-0.31841285523164
"195","ENSG00000104833","ENSG00000135917",2.33656987082564
"196","ENSG00000104833","ENSG00000141404",0.0198110115912783
"197","ENSG00000104833","ENSG00000151552",1.24140228180984
"198","ENSG00000104833","ENSG00000160710",-0.615825823658009
"199","ENSG00000104833","ENSG00000165704",-1.08502376541572
"200","ENSG00000104833","ENSG00000170266",-0.483671589483247
"201","ENSG00000104833","ENSG00000176165",-1.1304571152871
"202","ENSG00000104833","ENSG00000180176",1.143176546558
"203","ENSG00000104833","ENSG00000180228",-0.715751502715367
"204","ENSG00000104833","ENSG00000184381",-0.754941522265115
"205","ENSG00000104833","ENSG00000196998",-0.838363852437971
"206","ENSG00000105409","ENSG00000114054",0.910225427808576
"207","ENSG00000105409","ENSG00000123191",0.519859790887511
"208","ENSG00000105409","ENSG00000125779",-1.2234727059437
"209","ENSG00000105409","ENSG00000127990",2.00175797145776
"210","ENSG00000105409","ENSG00000129250",-2.44871005141381
"211","ENSG00000105409","ENSG00000131931",-0.71533531169646
"212","ENSG00000105409","ENSG00000131943",-1.08811977090161
"213","ENSG00000105409","ENSG00000136143",0.0567483177176198
"214","ENSG00000105409","ENSG00000136827",-2.05311068987384
"215","ENSG00000105409","ENSG00000142319",1.9647604664236
"216","ENSG00000105409","ENSG00000146085",-1.26427500923243
"217","ENSG00000105409","ENSG00000147133",-0.655557180529708
"218","ENSG00000105409","ENSG00000150787",-2.14952219551986
"219","ENSG00000105409","ENSG00000173175",3.66736030785273
"220","ENSG00000105409","ENSG00000175198",0.0364851035651666
"221","ENSG00000105409","ENSG00000196660",0.346076693595394
"222","ENSG00000105409","ENSG00000198695",-0.461929259801122
"223","ENSG00000105409","ENSG00000272333",0.953860202741404
"224","ENSG00000105409","ENSG00000078369",0.507237033869362
"225","ENSG00000105409","ENSG00000087086",-0.349941788687396
"226","ENSG00000105409","ENSG00000105607",0.380071855022396
"227","ENSG00000105409","ENSG00000115827",0.997680155929146
"228","ENSG00000105409","ENSG00000116096",3.08774196720036
"229","ENSG00000105409","ENSG00000126953",0.0973258068792397
"230","ENSG00000105409","ENSG00000131979",0.698332199094265
"231","ENSG00000105409","ENSG00000132437",3.00777324550754
"232","ENSG00000105409","ENSG00000134343",0.47066648157244
"233","ENSG00000105409","ENSG00000135917",0.912612879879114
"234","ENSG00000105409","ENSG00000141404",0.616280941659246
"235","ENSG00000105409","ENSG00000151552",-1.53124300844618
"236","ENSG00000105409","ENSG00000160710",-0.436931805259337
"237","ENSG00000105409","ENSG00000165704",1.01145290287258
"238","ENSG00000105409","ENSG00000170266",0.0919354765849362
"239","ENSG00000105409","ENSG00000176165",-2.40753698959405
"240","ENSG00000105409","ENSG00000180176",1.80736201389687
"241","ENSG00000105409","ENSG00000180228",-1.08585322411785
"242","ENSG00000105409","ENSG00000184381",-1.0266776838696
"243","ENSG00000105409","ENSG00000196998",-3.00098463540071
"244","ENSG00000114054","ENSG00000123191",3.63899482812208
"245","ENSG00000114054","ENSG00000125779",-3.71788667025378
"246","ENSG00000114054","ENSG00000127990",-2.39510783716571
"247","ENSG00000114054","ENSG00000129250",-0.159927399333995
"248","ENSG00000114054","ENSG00000131931",-0.436795630820668
"249","ENSG00000114054","ENSG00000131943",0.0558907594260367
"250","ENSG00000114054","ENSG00000136143",2.13374608089977
"251","ENSG00000114054","ENSG00000136827",0.255736170486746
"252","ENSG00000114054","ENSG00000142319",-1.7423818014186
"253","ENSG00000114054","ENSG00000146085",3.91290511988597
"254","ENSG00000114054","ENSG00000147133",-2.56431597585555
"255","ENSG00000114054","ENSG00000150787",2.15913053062355
"256","ENSG00000114054","ENSG00000173175",1.61320893887198
"257","ENSG00000114054","ENSG00000175198",4.59703305349168
"258","ENSG00000114054","ENSG00000196660",0.7786667828394
"259","ENSG00000114054","ENSG00000198695",1.36722741199423
"260","ENSG00000114054","ENSG00000272333",-1.4468735159585
"261","ENSG00000114054","ENSG00000078369",0.0480580125657207
"262","ENSG00000114054","ENSG00000087086",1.19134818272149
"263","ENSG00000114054","ENSG00000105607",7.65755684556921
"264","ENSG00000114054","ENSG00000115827",-0.453667911257398
"265","ENSG00000114054","ENSG00000116096",1.84954975351355
"266","ENSG00000114054","ENSG00000126953",-0.345104807319939
"267","ENSG00000114054","ENSG00000131979",-0.182301579748492
"268","ENSG00000114054","ENSG00000132437",1.03223369419916
"269","ENSG00000114054","ENSG00000134343",0.445826526092046
"270","ENSG00000114054","ENSG00000135917",-0.754158915051255
"271","ENSG00000114054","ENSG00000141404",-1.59435682288813
"272","ENSG00000114054","ENSG00000151552",4.35071039779069
"273","ENSG00000114054","ENSG00000160710",1.90237533412462
"274","ENSG00000114054","ENSG00000165704",0.658591187121464
"275","ENSG00000114054","ENSG00000170266",3.69296284623884
"276","ENSG00000114054","ENSG00000176165",-0.426540749788661
"277","ENSG00000114054","ENSG00000180176",0.291943542187578
"278","ENSG00000114054","ENSG00000180228",1.1714579683438
"279","ENSG00000114054","ENSG00000184381",2.28800176330006
"280","ENSG00000114054","ENSG00000196998",0.0804173370522681
"281","ENSG00000123191","ENSG00000125779",-0.565768683541465
"282","ENSG00000123191","ENSG00000127990",-1.57646838302846
"283","ENSG00000123191","ENSG00000129250",0.27754805268638
"284","ENSG00000123191","ENSG00000131931",0.504819268010618
"285","ENSG00000123191","ENSG00000131943",2.28205333978716
"286","ENSG00000123191","ENSG00000136143",3.54885302674956
"287","ENSG00000123191","ENSG00000136827",-0.430849064237162
"288","ENSG00000123191","ENSG00000142319",1.09632909378462
"289","ENSG00000123191","ENSG00000146085",0.0448621485963208
"290","ENSG00000123191","ENSG00000147133",0.482925099205864
"291","ENSG00000123191","ENSG00000150787",2.24795875621046
"292","ENSG00000123191","ENSG00000173175",1.96546276334785
"293","ENSG00000123191","ENSG00000175198",1.75878268100974
"294","ENSG00000123191","ENSG00000196660",1.18778858929131
"295","ENSG00000123191","ENSG00000198695",-0.581785521750342
"296","ENSG00000123191","ENSG00000272333",0.478036980186126
"297","ENSG00000123191","ENSG00000078369",-1.98260678803573
"298","ENSG00000123191","ENSG00000087086",-0.751643014917345
"299","ENSG00000123191","ENSG00000105607",-1.37102712266805
"300","ENSG00000123191","ENSG00000115827",-0.0774954473900221
"301","ENSG00000123191","ENSG00000116096",2.42586570548669
"302","ENSG00000123191","ENSG00000126953",-0.649632603392881
"303","ENSG00000123191","ENSG00000131979",-0.330097214873847
"304","ENSG00000123191","ENSG00000132437",0.860452952532757
"305","ENSG00000123191","ENSG00000134343",-0.846728335413313
"306","ENSG00000123191","ENSG00000135917",0.487774669365846
"307","ENSG00000123191","ENSG00000141404",0.960316224735118
"308","ENSG00000123191","ENSG00000151552",-0.408420807768292
"309","ENSG00000123191","ENSG00000160710",0.524812357962054
"310","ENSG00000123191","ENSG00000165704",-1.88177587975102
"311","ENSG00000123191","ENSG00000170266",2.20505816283892
"312","ENSG00000123191","ENSG00000176165",-0.561336648639133
"313","ENSG00000123191","ENSG00000180176",-0.269117628825461
"314","ENSG00000123191","ENSG00000180228",-1.54097090935097
"315","ENSG00000123191","ENSG00000184381",1.57610315191029
"316","ENSG00000123191","ENSG00000196998",-0.193237624129422
"317","ENSG00000125779","ENSG00000127990",-1.04462854656553
"318","ENSG00000125779","ENSG00000129250",2.98024537864789
"319","ENSG00000125779","ENSG00000131931",-0.430819102533979
"320","ENSG00000125779","ENSG00000131943",-0.348149533459174
"321","ENSG00000125779","ENSG00000136143",0.0248917340554792
"322","ENSG00000125779","ENSG00000136827",0.0995359699498495
"323","ENSG00000125779","ENSG00000142319",0.313256198381192
"324","ENSG00000125779","ENSG00000146085",-1.01361779979431
"325","ENSG00000125779","ENSG00000147133",-0.560293681134909
"326","ENSG00000125779","ENSG00000150787",-1.18786313455611
"327","ENSG00000125779","ENSG00000173175",2.16186505724338
"328","ENSG00000125779","ENSG00000175198",0.196971352118116
"329","ENSG00000125779","ENSG00000196660",0.151673721666749
"330","ENSG00000125779","ENSG00000198695",1.14888192971305
"331","ENSG00000125779","ENSG00000272333",-0.893993372025544
"332","ENSG00000125779","ENSG00000078369",3.16327915883499
"333","ENSG00000125779","ENSG00000087086",-0.17296316945598
"334","ENSG00000125779","ENSG00000105607",-1.76543846482851
"335","ENSG00000125779","ENSG00000115827",-1.85265228316423
"336","ENSG00000125779","ENSG00000116096",0.10057131175051
"337","ENSG00000125779","ENSG00000126953",-0.0987773350944741
"338","ENSG00000125779","ENSG00000131979",1.80568419493452
"339","ENSG00000125779","ENSG00000132437",-0.736261703272783
"340","ENSG00000125779","ENSG00000134343",1.01824225266848
"341","ENSG00000125779","ENSG00000135917",-0.792378266591601
"342","ENSG00000125779","ENSG00000141404",-1.596747706425
"343","ENSG00000125779","ENSG00000151552",-0.51670691743628
"344","ENSG00000125779","ENSG00000160710",0.552910705182015
"345","ENSG00000125779","ENSG00000165704",0.960001353385849
"346","ENSG00000125779","ENSG00000170266",-2.31012081348217
"347","ENSG00000125779","ENSG00000176165",0.621382633330521
"348","ENSG00000125779","ENSG00000180176",0.358415613673789
"349","ENSG00000125779","ENSG00000180228",-1.62671128534937
"350","ENSG00000125779","ENSG00000184381",0.359569669227377
"351","ENSG00000125779","ENSG00000196998",1.23922768609675
"352","ENSG00000127990","ENSG00000129250",-0.239384624028703
"353","ENSG00000127990","ENSG00000131931",-0.527110500396686
"354","ENSG00000127990","ENSG00000131943",0.236959198885737
"355","ENSG00000127990","ENSG00000136143",2.3718494627352
"356","ENSG00000127990","ENSG00000136827",-1.72427027351
"357","ENSG00000127990","ENSG00000142319",-1.03062532122242
"358","ENSG00000127990","ENSG00000146085",0.486744892219299
"359","ENSG00000127990","ENSG00000147133",-0.233056895242604
"360","ENSG00000127990","ENSG00000150787",0.587602909917845
"361","ENSG00000127990","ENSG00000173175",0.0188662628067315
"362","ENSG00000127990","ENSG00000175198",1.42486958565251
"363","ENSG00000127990","ENSG00000196660",0.544227688734069
"364","ENSG00000127990","ENSG00000198695",0.116245270311258
"365","ENSG00000127990","ENSG00000272333",-1.35869120193597
"366","ENSG00000127990","ENSG00000078369",-0.0834549946518276
"367","ENSG00000127990","ENSG00000087086",-2.14857378983235
"368","ENSG00000127990","ENSG00000105607",-2.74064780115579
"369","ENSG00000127990","ENSG00000115827",-0.966148907705451
"370","ENSG00000127990","ENSG00000116096",-2.94750609833792
"371","ENSG00000127990","ENSG00000126953",-1.31275959304221
"372","ENSG00000127990","ENSG00000131979",-1.34733275186353
"373","ENSG00000127990","ENSG00000132437",1.19081850228928
"374","ENSG00000127990","ENSG00000134343",-0.831799688310517
"375","ENSG00000127990","ENSG00000135917",3.30530235595653
"376","ENSG00000127990","ENSG00000141404",1.21604755099294
"377","ENSG00000127990","ENSG00000151552",-2.72914101108103
"378","ENSG00000127990","ENSG00000160710",0.379670729864911
"379","ENSG00000127990","ENSG00000165704",0.539868027682903
"380","ENSG00000127990","ENSG00000170266",0.425764774824711
"381","ENSG00000127990","ENSG00000176165",-1.37825566565517
"382","ENSG00000127990","ENSG00000180176",-0.101438976001187
"383","ENSG00000127990","ENSG00000180228",0.398527022193506
"384","ENSG00000127990","ENSG00000184381",-0.0423103187791631
"385","ENSG00000127990","ENSG00000196998",-1.01976318349562
"386","ENSG00000129250","ENSG00000131931",-0.0527550694360756
"387","ENSG00000129250","ENSG00000131943",0.879170663612886
"388","ENSG00000129250","ENSG00000136143",-0.282662941097779
"389","ENSG00000129250","ENSG00000136827",-2.14271845163683
"390","ENSG00000129250","ENSG00000142319",-1.70892419088014
"391","ENSG00000129250","ENSG00000146085",-1.26985930657669
"392","ENSG00000129250","ENSG00000147133",2.30485152173315
"393","ENSG00000129250","ENSG00000150787",0.908500285124376
"394","ENSG00000129250","ENSG00000173175",0.235811167673083
"395","ENSG00000129250","ENSG00000175198",2.47443634699718
"396","ENSG00000129250","ENSG00000196660",0.929277923661494
"397","ENSG00000129250","ENSG00000198695",0.438479536345406
"398","ENSG00000129250","ENSG00000272333",1.4044671937561
"399","ENSG00000129250","ENSG00000078369",-0.519550825646511
"400","ENSG00000129250","ENSG00000087086",-0.00902205628158856
"401","ENSG00000129250","ENSG00000105607",-0.226621848963986
"402","ENSG00000129250","ENSG00000115827",-0.152784115989305
"403","ENSG00000129250","ENSG00000116096",5.30246539103195
"404","ENSG00000129250","ENSG00000126953",-1.88763587934668
"405","ENSG00000129250","ENSG00000131979",0.515683360959253
"406","ENSG00000129250","ENSG00000132437",-2.72558879103393
"407","ENSG00000129250","ENSG00000134343",1.88729740785977
"408","ENSG00000129250","ENSG00000135917",1.26987765641957
"409","ENSG00000129250","ENSG00000141404",2.48260461803055
"410","ENSG00000129250","ENSG00000151552",1.16603362641611
"411","ENSG00000129250","ENSG00000160710",-1.67859146470176
"412","ENSG00000129250","ENSG00000165704",-3.20335184649747
"413","ENSG00000129250","ENSG00000170266",2.91395379918318
"414","ENSG00000129250","ENSG00000176165",0.0752746010907191
"415","ENSG00000129250","ENSG00000180176",-0.514370207387877
"416","ENSG00000129250","ENSG00000180228",-0.760024037535363
"417","ENSG00000129250","ENSG00000184381",-2.35913572140363
"418","ENSG00000129250","ENSG00000196998",-0.919136207807795
"419","ENSG00000131931","ENSG00000131943",0.391692824255572
"420","ENSG00000131931","ENSG00000136143",2.40310734284452
"421","ENSG00000131931","ENSG00000136827",-0.593984955049547
"422","ENSG00000131931","ENSG00000142319",-0.527866561940193
"423","ENSG00000131931","ENSG00000146085",1.26916933690333
"424","ENSG00000131931","ENSG00000147133",-1.1261077539925
"425","ENSG00000131931","ENSG00000150787",0.843006512515077
"426","ENSG00000131931","ENSG00000173175",0.84571344792401
"427","ENSG00000131931","ENSG00000175198",0.28491396575688
"428","ENSG00000131931","ENSG00000196660",0.854780364142656
"429","ENSG00000131931","ENSG00000198695",1.41362964608319
"430","ENSG00000131931","ENSG00000272333",0.940285660747771
"431","ENSG00000131931","ENSG00000078369",1.58262792097075
"432","ENSG00000131931","ENSG00000087086",0.488087723195255
"433","ENSG00000131931","ENSG00000105607",-1.06871571186352
"434","ENSG00000131931","ENSG00000115827",0.0843970379339809
"435","ENSG00000131931","ENSG00000116096",-1.27054460866993
"436","ENSG00000131931","ENSG00000126953",0.539113993133004
"437","ENSG00000131931","ENSG00000131979",1.56393408638149
"438","ENSG00000131931","ENSG00000132437",-1.30621494890211
"439","ENSG00000131931","ENSG00000134343",1.05698614936178
"440","ENSG00000131931","ENSG00000135917",-0.0661345252795482
"441","ENSG00000131931","ENSG00000141404",-0.226700411826448
"442","ENSG00000131931","ENSG00000151552",-0.757740804518374
"443","ENSG00000131931","ENSG00000160710",-1.53627278630537
"444","ENSG00000131931","ENSG00000165704",-0.93969407910682
"445","ENSG00000131931","ENSG00000170266",0.306546742875995
"446","ENSG00000131931","ENSG00000176165",0.12584015947951
"447","ENSG00000131931","ENSG00000180176",0.081076041036921
"448","ENSG00000131931","ENSG00000180228",0.909576438787201
"449","ENSG00000131931","ENSG00000184381",0.821038553420282
"450","ENSG00000131931","ENSG00000196998",1.14274524469383
"451","ENSG00000131943","ENSG00000136143",1.00973122896374
"452","ENSG00000131943","ENSG00000136827",3.39105101865726
"453","ENSG00000131943","ENSG00000142319",-0.49622542504399
"454","ENSG00000131943","ENSG00000146085",1.42130119515166
"455","ENSG00000131943","ENSG00000147133",-1.29706768924664
"456","ENSG00000131943","ENSG00000150787",1.96137004775259
"457","ENSG00000131943","ENSG00000173175",2.48132061091308
"458","ENSG00000131943","ENSG00000175198",0.727498918920275
"459","ENSG00000131943","ENSG00000196660",0.378649466981414
"460","ENSG00000131943","ENSG00000198695",-1.05808805071339
"461","ENSG00000131943","ENSG00000272333",5.60573549740857
"462","ENSG00000131943","ENSG00000078369",0.693090178868939
"463","ENSG00000131943","ENSG00000087086",0.480645810136682
"464","ENSG00000131943","ENSG00000105607",-0.00441013359525525
"465","ENSG00000131943","ENSG00000115827",2.4787017597432
"466","ENSG00000131943","ENSG00000116096",1.57107051368938
"467","ENSG00000131943","ENSG00000126953",0.33813860566315
"468","ENSG00000131943","ENSG00000131979",0.210389192307162
"469","ENSG00000131943","ENSG00000132437",0.926586623975105
"470","ENSG00000131943","ENSG00000134343",1.33587184634793
"471","ENSG00000131943","ENSG00000135917",4.26690921509099
"472","ENSG00000131943","ENSG00000141404",3.43532386475948
"473","ENSG00000131943","ENSG00000151552",1.36384023515331
"474","ENSG00000131943","ENSG00000160710",0.701598032733381
"475","ENSG00000131943","ENSG00000165704",-3.49530229603192
"476","ENSG00000131943","ENSG00000170266",-3.44418065777216
"477","ENSG00000131943","ENSG00000176165",1.71698549255225
"478","ENSG00000131943","ENSG00000180176",-1.52000346847796
"479","ENSG00000131943","ENSG00000180228",2.34383213107133
"480","ENSG00000131943","ENSG00000184381",0.726441120906734
"481","ENSG00000131943","ENSG00000196998",2.56454176601857
"482","ENSG00000136143","ENSG00000136827",-0.822583482884329
"483","ENSG00000136143","ENSG00000142319",0.127401723515013
"484","ENSG00000136143","ENSG00000146085",3.36653543233784
"485","ENSG00000136143","ENSG00000147133",-2.50854673045769
"486","ENSG00000136143","ENSG00000150787",0.93769692048513
"487","ENSG00000136143","ENSG00000173175",2.98937917749906
"488","ENSG00000136143","ENSG00000175198",6.17190643105945
"489","ENSG00000136143","ENSG00000196660",-1.36832943519743
"490","ENSG00000136143","ENSG00000198695",-1.02244473889161
"491","ENSG00000136143","ENSG00000272333",-0.8450310016313
"492","ENSG00000136143","ENSG00000078369",-0.350576167832925
"493","ENSG00000136143","ENSG00000087086",-1.17280781794643
"494","ENSG00000136143","ENSG00000105607",1.76315323126616
"495","ENSG00000136143","ENSG00000115827",-0.490411630565841
"496","ENSG00000136143","ENSG00000116096",-0.0992327499119377
"497","ENSG00000136143","ENSG00000126953",-0.627878731739572
"498","ENSG00000136143","ENSG00000131979",-0.000509572754701648
"499","ENSG00000136143","ENSG00000132437",0.102413939212507
"500","ENSG00000136143","ENSG00000134343",-1.13840859890284
"501","ENSG00000136143","ENSG00000135917",-0.302998538465075
"502","ENSG00000136143","ENSG00000141404",0.57215259647902
"503","ENSG00000136143","ENSG00000151552",1.59808851651526
"504","ENSG00000136143","ENSG00000160710",-1.80711357110635
"505","ENSG00000136143","ENSG00000165704",-0.49750208615359
"506","ENSG00000136143","ENSG00000170266",-1.26472303858788
"507","ENSG00000136143","ENSG00000176165",-0.309140980008709
"508","ENSG00000136143","ENSG00000180176",2.00277202490282
"509","ENSG00000136143","ENSG00000180228",1.25306441684288
"510","ENSG00000136143","ENSG00000184381",-0.0795807206719109
"511","ENSG00000136143","ENSG00000196998",-3.11539009142541
"512","ENSG00000136827","ENSG00000142319",0.330291972180204
"513","ENSG00000136827","ENSG00000146085",-0.00732970518985046
"514","ENSG00000136827","ENSG00000147133",-0.472001624172502
"515","ENSG00000136827","ENSG00000150787",-0.79656261199036
"516","ENSG00000136827","ENSG00000173175",-1.26980153607595
"517","ENSG00000136827","ENSG00000175198",-1.72184742839198
"518","ENSG00000136827","ENSG00000196660",0.440811095137037
"519","ENSG00000136827","ENSG00000198695",-1.42656965819682
"520","ENSG00000136827","ENSG00000272333",0.978143881878529
"521","ENSG00000136827","ENSG00000078369",0.267878677797445
"522","ENSG00000136827","ENSG00000087086",-3.15830849553577
"523","ENSG00000136827","ENSG00000105607",-1.26262502749121
"524","ENSG00000136827","ENSG00000115827",-0.168440162798723
"525","ENSG00000136827","ENSG00000116096",0.603741761977736
"526","ENSG00000136827","ENSG00000126953",1.41272494327469
"527","ENSG00000136827","ENSG00000131979",0.973825916014889
"528","ENSG00000136827","ENSG00000132437",-1.5808283189841
"529","ENSG00000136827","ENSG00000134343",1.11986359165421
"530","ENSG00000136827","ENSG00000135917",-1.26010847116151
"531","ENSG00000136827","ENSG00000141404",0.380117169436451
"532","ENSG00000136827","ENSG00000151552",-1.19621937860923
"533","ENSG00000136827","ENSG00000160710",1.90116242568414
"534","ENSG00000136827","ENSG00000165704",0.0455615582992257
"535","ENSG00000136827","ENSG00000170266",4.27565756707118
"536","ENSG00000136827","ENSG00000176165",1.0679604946191
"537","ENSG00000136827","ENSG00000180176",-0.380255025581713
"538","ENSG00000136827","ENSG00000180228",1.2904071517081
"539","ENSG00000136827","ENSG00000184381",-2.33727072476871
"540","ENSG00000136827","ENSG00000196998",4.50409006339105
"541","ENSG00000142319","ENSG00000146085",-0.694625817260329
"542","ENSG00000142319","ENSG00000147133",-0.095567400267298
"543","ENSG00000142319","ENSG00000150787",-1.30950616107162
"544","ENSG00000142319","ENSG00000173175",1.28024937200149
"545","ENSG00000142319","ENSG00000175198",0.0586187601600388
"546","ENSG00000142319","ENSG00000196660",-3.76375523648971
"547","ENSG00000142319","ENSG00000198695",-0.492655323920206
"548","ENSG00000142319","ENSG00000272333",-0.128475746559402
"549","ENSG00000142319","ENSG00000078369",-0.354768913214171
"550","ENSG00000142319","ENSG00000087086",-1.89410452552865
"551","ENSG00000142319","ENSG00000105607",-2.07256741796429
"552","ENSG00000142319","ENSG00000115827",-0.831687668541453
"553","ENSG00000142319","ENSG00000116096",0.250980283879808
"554","ENSG00000142319","ENSG00000126953",-1.39815821808443
"555","ENSG00000142319","ENSG00000131979",-1.08698628499389
"556","ENSG00000142319","ENSG00000132437",1.29713852071718
"557","ENSG00000142319","ENSG00000134343",-0.109486334090453
"558","ENSG00000142319","ENSG00000135917",-1.08538535335636
"559","ENSG00000142319","ENSG00000141404",-1.60297681644354
"560","ENSG00000142319","ENSG00000151552",-2.20676608242007
"561","ENSG00000142319","ENSG00000160710",-0.29532270087828
"562","ENSG00000142319","ENSG00000165704",-2.28751339386748
"563","ENSG00000142319","ENSG00000170266",-4.31620577646367
"564","ENSG00000142319","ENSG00000176165",0.176205032942856
"565","ENSG00000142319","ENSG00000180176",0.937135629633375
"566","ENSG00000142319","ENSG00000180228",0.391484959181943
"567","ENSG00000142319","ENSG00000184381",-0.678127545209946
"568","ENSG00000142319","ENSG00000196998",-0.736504154811339
"569","ENSG00000146085","ENSG00000147133",0.982831050029713
"570","ENSG00000146085","ENSG00000150787",1.74353699122642
"571","ENSG00000146085","ENSG00000173175",2.50812614331534
"572","ENSG00000146085","ENSG00000175198",5.07939279040459
"573","ENSG00000146085","ENSG00000196660",2.80712069677003
"574","ENSG00000146085","ENSG00000198695",0.757312222504247
"575","ENSG00000146085","ENSG00000272333",0.471102129456988
"576","ENSG00000146085","ENSG00000078369",0.332277835757121
"577","ENSG00000146085","ENSG00000087086",0.667506671709367
"578","ENSG00000146085","ENSG00000105607",5.3124800635452
"579","ENSG00000146085","ENSG00000115827",-2.21449822961587
"580","ENSG00000146085","ENSG00000116096",-2.6427193129239
"581","ENSG00000146085","ENSG00000126953",1.02826524293208
"582","ENSG00000146085","ENSG00000131979",0.921214039261882
"583","ENSG00000146085","ENSG00000132437",1.0094800155237
"584","ENSG00000146085","ENSG00000134343",0.538609345578563
"585","ENSG00000146085","ENSG00000135917",-0.845290317046448
"586","ENSG00000146085","ENSG00000141404",-0.43649806777268
"587","ENSG00000146085","ENSG00000151552",2.71668871539947
"588","ENSG00000146085","ENSG00000160710",0.595299376279672
"589","ENSG00000146085","ENSG00000165704",1.19888988906945
"590","ENSG00000146085","ENSG00000170266",1.46594946734406
"591","ENSG00000146085","ENSG00000176165",1.04219357107512
"592","ENSG00000146085","ENSG00000180176",1.03782795667208
"593","ENSG00000146085","ENSG00000180228",-3.40363273221699
"594","ENSG00000146085","ENSG00000184381",2.54000790942743
"595","ENSG00000146085","ENSG00000196998",3.30162549335544
"596","ENSG00000147133","ENSG00000150787",-2.24702153836601
"597","ENSG00000147133","ENSG00000173175",0.489927455216823
"598","ENSG00000147133","ENSG00000175198",0.258662587902133
"599","ENSG00000147133","ENSG00000196660",-0.335096809713509
"600","ENSG00000147133","ENSG00000198695",-1.40696716691759
"601","ENSG00000147133","ENSG00000272333",4.4669802006179
"602","ENSG00000147133","ENSG00000078369",0.24775469212203
"603","ENSG00000147133","ENSG00000087086",-1.09391540128966
"604","ENSG00000147133","ENSG00000105607",0.523516753315306
"605","ENSG00000147133","ENSG00000115827",1.91205347796726
"606","ENSG00000147133","ENSG00000116096",-0.0304178905909078
"607","ENSG00000147133","ENSG00000126953",2.99985303077267
"608","ENSG00000147133","ENSG00000131979",-0.904613000617179
"609","ENSG00000147133","ENSG00000132437",-0.476331178864823
"610","ENSG00000147133","ENSG00000134343",0.168181013533572
"611","ENSG00000147133","ENSG00000135917",-1.54231557716801
"612","ENSG00000147133","ENSG00000141404",0.443684116177068
"613","ENSG00000147133","ENSG00000151552",-0.957420198480404
"614","ENSG00000147133","ENSG00000160710",1.76033382088763
"615","ENSG00000147133","ENSG00000165704",2.79215199291006
"616","ENSG00000147133","ENSG00000170266",1.55834339967595
"617","ENSG00000147133","ENSG00000176165",0.434890984293592
"618","ENSG00000147133","ENSG00000180176",-0.419887882210909
"619","ENSG00000147133","ENSG00000180228",-3.6333228552272
"620","ENSG00000147133","ENSG00000184381",-1.17876357726621
"621","ENSG00000147133","ENSG00000196998",3.54522090455671
"622","ENSG00000150787","ENSG00000173175",-0.958856447273538
"623","ENSG00000150787","ENSG00000175198",-1.23345213998364
"624","ENSG00000150787","ENSG00000196660",0.00691937499850731
"625","ENSG00000150787","ENSG00000198695",-1.0375755422454
"626","ENSG00000150787","ENSG00000272333",-1.04064541525358
"627","ENSG00000150787","ENSG00000078369",2.30911980483353
"628","ENSG00000150787","ENSG00000087086",-2.1696111989858
"629","ENSG00000150787","ENSG00000105607",0.660442549705335
"630","ENSG00000150787","ENSG00000115827",-1.01426857681988
"631","ENSG00000150787","ENSG00000116096",-0.00291145132838968
"632","ENSG00000150787","ENSG00000126953",-0.0428885775991032
"633","ENSG00000150787","ENSG00000131979",2.27873679243313
"634","ENSG00000150787","ENSG00000132437",2.06483990240493
"635","ENSG00000150787","ENSG00000134343",0.00111686284024026
"636","ENSG00000150787","ENSG00000135917",0.178531436644231
"637","ENSG00000150787","ENSG00000141404",-0.312025201091303
"638","ENSG00000150787","ENSG00000151552",0.345485150125608
"639","ENSG00000150787","ENSG00000160710",-1.9189674807948
"640","ENSG00000150787","ENSG00000165704",1.40253834744232
"641","ENSG00000150787","ENSG00000170266",-1.14179462262282
"642","ENSG00000150787","ENSG00000176165",-0.727385218109446
"643","ENSG00000150787","ENSG00000180176",1.91799805349852
"644","ENSG00000150787","ENSG00000180228",1.98935587763653
"645","ENSG00000150787","ENSG00000184381",-1.17270346612861
"646","ENSG00000150787","ENSG00000196998",2.00175504313095
"647","ENSG00000173175","ENSG00000175198",0.130243878352847
"648","ENSG00000173175","ENSG00000196660",-1.50678584932384
"649","ENSG00000173175","ENSG00000198695",-0.291708751310575
"650","ENSG00000173175","ENSG00000272333",0.863665220460178
"651","ENSG00000173175","ENSG00000078369",-0.640350147559818
"652","ENSG00000173175","ENSG00000087086",1.16029605832746
"653","ENSG00000173175","ENSG00000105607",0.890342720426445
"654","ENSG00000173175","ENSG00000115827",-0.0825938782192641
"655","ENSG00000173175","ENSG00000116096",0.492767928626291
"656","ENSG00000173175","ENSG00000126953",0.603171862750866
"657","ENSG00000173175","ENSG00000131979",-1.84423361214088
"658","ENSG00000173175","ENSG00000132437",-1.47157805337481
"659","ENSG00000173175","ENSG00000134343",-0.587776901840687
"660","ENSG00000173175","ENSG00000135917",1.52692553011258
"661","ENSG00000173175","ENSG00000141404",3.81972729524834
"662","ENSG00000173175","ENSG00000151552",-1.27073613011283
"663","ENSG00000173175","ENSG00000160710",-0.406301990505219
"664","ENSG00000173175","ENSG00000165704",-2.91948168838763
"665","ENSG00000173175","ENSG00000170266",0.805889750529402
"666","ENSG00000173175","ENSG00000176165",-1.12054563896232
"667","ENSG00000173175","ENSG00000180176",-0.368045561252831
"668","ENSG00000173175","ENSG00000180228",-0.703736170161988
"669","ENSG00000173175","ENSG00000184381",-0.428008287747765
"670","ENSG00000173175","ENSG00000196998",0.159315609295691
"671","ENSG00000175198","ENSG00000196660",-1.71791742302749
"672","ENSG00000175198","ENSG00000198695",1.09149320782751
"673","ENSG00000175198","ENSG00000272333",-2.9291632164011
"674","ENSG00000175198","ENSG00000078369",-3.30031936926566
"675","ENSG00000175198","ENSG00000087086",-0.0757447119955508
"676","ENSG00000175198","ENSG00000105607",2.42671680503805
"677","ENSG00000175198","ENSG00000115827",0.152629705291184
"678","ENSG00000175198","ENSG00000116096",0.740150621882718
"679","ENSG00000175198","ENSG00000126953",-0.267568687345473
"680","ENSG00000175198","ENSG00000131979",1.66920080580091
"681","ENSG00000175198","ENSG00000132437",-1.04778757528804
"682","ENSG00000175198","ENSG00000134343",0.193208271652289
"683","ENSG00000175198","ENSG00000135917",-0.338973392760771
"684","ENSG00000175198","ENSG00000141404",-0.224428009698656
"685","ENSG00000175198","ENSG00000151552",-0.682239364266196
"686","ENSG00000175198","ENSG00000160710",-0.617556000174009
"687","ENSG00000175198","ENSG00000165704",-0.664772392272486
"688","ENSG00000175198","ENSG00000170266",1.10383190471223
"689","ENSG00000175198","ENSG00000176165",-0.148077893352513
"690","ENSG00000175198","ENSG00000180176",0.817243912242217
"691","ENSG00000175198","ENSG00000180228",1.15102826305896
"692","ENSG00000175198","ENSG00000184381",0.396061107995269
"693","ENSG00000175198","ENSG00000196998",-2.19784154900008
"694","ENSG00000196660","ENSG00000198695",0.549052192071987
"695","ENSG00000196660","ENSG00000272333",1.36405791522703
"696","ENSG00000196660","ENSG00000078369",2.46019198328276
"697","ENSG00000196660","ENSG00000087086",-2.15994983293966
"698","ENSG00000196660","ENSG00000105607",-0.0360982000313595
"699","ENSG00000196660","ENSG00000115827",1.623957235029
"700","ENSG00000196660","ENSG00000116096",-0.751410213026722
"701","ENSG00000196660","ENSG00000126953",0.135526480728173
"702","ENSG00000196660","ENSG00000131979",1.1079799997582
"703","ENSG00000196660","ENSG00000132437",2.87524386250255
"704","ENSG00000196660","ENSG00000134343",-2.09401657287011
"705","ENSG00000196660","ENSG00000135917",-0.102476198697394
"706","ENSG00000196660","ENSG00000141404",0.0891545718917249
"707","ENSG00000196660","ENSG00000151552",0.945022172600841
"708","ENSG00000196660","ENSG00000160710",0.0519725309559607
"709","ENSG00000196660","ENSG00000165704",1.23025658933587
"710","ENSG00000196660","ENSG00000170266",0.402995177890982
"711","ENSG00000196660","ENSG00000176165",2.36699710022368
"712","ENSG00000196660","ENSG00000180176",-0.405812491904388
"713","ENSG00000196660","ENSG00000180228",-0.775033630437303
"714","ENSG00000196660","ENSG00000184381",0.865097909968534
"715","ENSG00000196660","ENSG00000196998",1.57193351987556
"716","ENSG00000198695","ENSG00000272333",0.685452576810362
"717","ENSG00000198695","ENSG00000078369",-0.131945114329701
"718","ENSG00000198695","ENSG00000087086",2.21236229766193
"719","ENSG00000198695","ENSG00000105607",1.00863922076087
"720","ENSG00000198695","ENSG00000115827",0.313109477204041
"721","ENSG00000198695","ENSG00000116096",-1.04228749883012
"722","ENSG00000198695","ENSG00000126953",-0.745436142751947
"723","ENSG00000198695","ENSG00000131979",-0.168520235300462
"724","ENSG00000198695","ENSG00000132437",-0.379872018788977
"725","ENSG00000198695","ENSG00000134343",0.000140423642579211
"726","ENSG00000198695","ENSG00000135917",-1.41746615188062
"727","ENSG00000198695","ENSG00000141404",-0.853168284093991
"728","ENSG00000198695","ENSG00000151552",1.90771194548035
"729","ENSG00000198695","ENSG00000160710",-0.744624116445693
"730","ENSG00000198695","ENSG00000165704",2.11610043393933
"731","ENSG00000198695","ENSG00000170266",0.230579710438545
"732","ENSG00000198695","ENSG00000176165",0.306146103510459
"733","ENSG00000198695","ENSG00000180176",1.13521267223713
"734","ENSG00000198695","ENSG00000180228",0.446653085087125
"735","ENSG00000198695","ENSG00000184381",-1.52173611246781
"736","ENSG00000198695","ENSG00000196998",-0.0141846446197801
"737","ENSG00000272333","ENSG00000078369",0.192234231718104
"738","ENSG00000272333","ENSG00000087086",0.963735670823505
"739","ENSG00000272333","ENSG00000105607",1.56664866178297
"740","ENSG00000272333","ENSG00000115827",1.16984166949575
"741","ENSG00000272333","ENSG00000116096",-1.48250963651144
"742","ENSG00000272333","ENSG00000126953",1.12390473953207
"743","ENSG00000272333","ENSG00000131979",-1.61973395960635
"744","ENSG00000272333","ENSG00000132437",1.07186102369372
"745","ENSG00000272333","ENSG00000134343",-0.617840100597162
"746","ENSG00000272333","ENSG00000135917",0.386517444290123
"747","ENSG00000272333","ENSG00000141404",0.0216620587935247
"748","ENSG00000272333","ENSG00000151552",-2.0207168863179
"749","ENSG00000272333","ENSG00000160710",1.35515774787297
"750","ENSG00000272333","ENSG00000165704",2.41364877733246
"751","ENSG00000272333","ENSG00000170266",0.292795032520187
"752","ENSG00000272333","ENSG00000176165",0.214644087212948
"753","ENSG00000272333","ENSG00000180176",0.0554603271127599
"754","ENSG00000272333","ENSG00000180228",-0.595740627575061
"755","ENSG00000272333","ENSG00000184381",1.61205901671438
"756","ENSG00000272333","ENSG00000196998",-0.580583539692024
"757","ENSG00000078369","ENSG00000087086",1.7621993606367
"758","ENSG00000078369","ENSG00000105607",-1.34995720610325
"759","ENSG00000078369","ENSG00000115827",-1.58405354686576
"760","ENSG00000078369","ENSG00000116096",-3.914718780681
"761","ENSG00000078369","ENSG00000126953",1.56380933185293
"762","ENSG00000078369","ENSG00000131979",1.95692185955007
"763","ENSG00000078369","ENSG00000132437",-0.246725094089345
"764","ENSG00000078369","ENSG00000134343",0.630428717859025
"765","ENSG00000078369","ENSG00000135917",-0.659776012558468
"766","ENSG00000078369","ENSG00000141404",0.0680206918291561
"767","ENSG00000078369","ENSG00000151552",5.15344073272363
"768","ENSG00000078369","ENSG00000160710",4.14264046039259
"769","ENSG00000078369","ENSG00000165704",2.08927239297779
"770","ENSG00000078369","ENSG00000170266",-0.950293746434214
"771","ENSG00000078369","ENSG00000176165",0.337300349238888
"772","ENSG00000078369","ENSG00000180176",1.37784663257388
"773","ENSG00000078369","ENSG00000180228",1.11287139499167
"774","ENSG00000078369","ENSG00000184381",-0.969490979173787
"775","ENSG00000078369","ENSG00000196998",0.809528255217889
"776","ENSG00000087086","ENSG00000105607",-0.175769670055125
"777","ENSG00000087086","ENSG00000115827",0.481040394378789
"778","ENSG00000087086","ENSG00000116096",-0.457333358389969
"779","ENSG00000087086","ENSG00000126953",-0.532155534752398
"780","ENSG00000087086","ENSG00000131979",-0.289443541215172
"781","ENSG00000087086","ENSG00000132437",0.077398680186918
"782","ENSG00000087086","ENSG00000134343",0.762448150611977
"783","ENSG00000087086","ENSG00000135917",3.7135357159927
"784","ENSG00000087086","ENSG00000141404",0.52034245093906
"785","ENSG00000087086","ENSG00000151552",3.74063754407157
"786","ENSG00000087086","ENSG00000160710",1.16545425468028
"787","ENSG00000087086","ENSG00000165704",-0.819199760767168
"788","ENSG00000087086","ENSG00000170266",3.54748937388772
"789","ENSG00000087086","ENSG00000176165",0.778441758181201
"790","ENSG00000087086","ENSG00000180176",0.35838805240469
"791","ENSG00000087086","ENSG00000180228",1.52994531552687
"792","ENSG00000087086","ENSG00000184381",-1.22363108235238
"793","ENSG00000087086","ENSG00000196998",0.0808716858455351
"794","ENSG00000105607","ENSG00000115827",-0.04627035076464
"795","ENSG00000105607","ENSG00000116096",-2.00788591068811
"796","ENSG00000105607","ENSG00000126953",3.73729942223869
"797","ENSG00000105607","ENSG00000131979",0.290171654720789
"798","ENSG00000105607","ENSG00000132437",-0.38668390992508
"799","ENSG00000105607","ENSG00000134343",-0.0388929698135207
"800","ENSG00000105607","ENSG00000135917",1.19103077694645
"801","ENSG00000105607","ENSG00000141404",-1.75248153564144
"802","ENSG00000105607","ENSG00000151552",5.01582431433382
"803","ENSG00000105607","ENSG00000160710",-0.237006397616413
"804","ENSG00000105607","ENSG00000165704",0.183429429115596
"805","ENSG00000105607","ENSG00000170266",-0.0581639436501743
"806","ENSG00000105607","ENSG00000176165",0.107645206488721
"807","ENSG00000105607","ENSG00000180176",-0.437744963681169
"808","ENSG00000105607","ENSG00000180228",2.33763648601602
"809","ENSG00000105607","ENSG00000184381",-1.47547499780582
"810","ENSG00000105607","ENSG00000196998",3.22738441401414
"811","ENSG00000115827","ENSG00000116096",0.425187770874321
"812","ENSG00000115827","ENSG00000126953",-0.0627553642259845
"813","ENSG00000115827","ENSG00000131979",0.897315205397247
"814","ENSG00000115827","ENSG00000132437",0.516572093055183
"815","ENSG00000115827","ENSG00000134343",0.696646278868257
"816","ENSG00000115827","ENSG00000135917",-0.453599173318122
"817","ENSG00000115827","ENSG00000141404",-0.477833013320845
"818","ENSG00000115827","ENSG00000151552",2.03809123416285
"819","ENSG00000115827","ENSG00000160710",-0.058082800362519
"820","ENSG00000115827","ENSG00000165704",0.214284177758385
"821","ENSG00000115827","ENSG00000170266",-1.18189444679401
"822","ENSG00000115827","ENSG00000176165",0.26835948566284
"823","ENSG00000115827","ENSG00000180176",0.501570777281944
"824","ENSG00000115827","ENSG00000180228",6.74311626015446
"825","ENSG00000115827","ENSG00000184381",2.03234883940057
"826","ENSG00000115827","ENSG00000196998",-1.92299859282592
"827","ENSG00000116096","ENSG00000126953",0.0115453381078972
"828","ENSG00000116096","ENSG00000131979",-0.165969705852723
"829","ENSG00000116096","ENSG00000132437",0.131126769482349
"830","ENSG00000116096","ENSG00000134343",0.239292645245314
"831","ENSG00000116096","ENSG00000135917",0.149559084960719
"832","ENSG00000116096","ENSG00000141404",0.451714653609329
"833","ENSG00000116096","ENSG00000151552",4.23667433059739
"834","ENSG00000116096","ENSG00000160710",0.239604710366215
"835","ENSG00000116096","ENSG00000165704",0.949877442995569
"836","ENSG00000116096","ENSG00000170266",2.16200088751689
"837","ENSG00000116096","ENSG00000176165",0.979565337981444
"838","ENSG00000116096","ENSG00000180176",-2.702344505358
"839","ENSG00000116096","ENSG00000180228",-1.53712497513412
"840","ENSG00000116096","ENSG00000184381",-1.99382410232175
"841","ENSG00000116096","ENSG00000196998",-0.754143689856633
"842","ENSG00000126953","ENSG00000131979",0.921078313201426
"843","ENSG00000126953","ENSG00000132437",-1.38292815155666
"844","ENSG00000126953","ENSG00000134343",-0.0720118985439364
"845","ENSG00000126953","ENSG00000135917",0.112745660246996
"846","ENSG00000126953","ENSG00000141404",-1.96425181121206
"847","ENSG00000126953","ENSG00000151552",2.00708528237272
"848","ENSG00000126953","ENSG00000160710",-0.136370096627138
"849","ENSG00000126953","ENSG00000165704",4.91109436288886
"850","ENSG00000126953","ENSG00000170266",-2.06644994344587
"851","ENSG00000126953","ENSG00000176165",0.135117906427292
"852","ENSG00000126953","ENSG00000180176",-0.756149555197487
"853","ENSG00000126953","ENSG00000180228",-0.372268084968767
"854","ENSG00000126953","ENSG00000184381",-3.59791596628853
"855","ENSG00000126953","ENSG00000196998",1.72060572070961
"856","ENSG00000131979","ENSG00000132437",1.87526206822588
"857","ENSG00000131979","ENSG00000134343",0.522423028900183
"858","ENSG00000131979","ENSG00000135917",1.41676877896746
"859","ENSG00000131979","ENSG00000141404",-2.26784629678456
"860","ENSG00000131979","ENSG00000151552",1.02576165444165
"861","ENSG00000131979","ENSG00000160710",1.04057777413195
"862","ENSG00000131979","ENSG00000165704",1.36017135524439
"863","ENSG00000131979","ENSG00000170266",-0.823797838993284
"864","ENSG00000131979","ENSG00000176165",0.00343107141710036
"865","ENSG00000131979","ENSG00000180176",1.89248469485325
"866","ENSG00000131979","ENSG00000180228",0.294772011447404
"867","ENSG00000131979","ENSG00000184381",-0.821977618752425
"868","ENSG00000131979","ENSG00000196998",1.25283656482794
"869","ENSG00000132437","ENSG00000134343",1.47118592887643
"870","ENSG00000132437","ENSG00000135917",1.85429612917902
"871","ENSG00000132437","ENSG00000141404",1.108655962628
"872","ENSG00000132437","ENSG00000151552",1.02459546148165
"873","ENSG00000132437","ENSG00000160710",-0.61458221033832
"874","ENSG00000132437","ENSG00000165704",0.469992313017014
"875","ENSG00000132437","ENSG00000170266",1.63071173884411
"876","ENSG00000132437","ENSG00000176165",-2.08271365355687
"877","ENSG00000132437","ENSG00000180176",3.49055224317477
"878","ENSG00000132437","ENSG00000180228",-0.369867829726322
"879","ENSG00000132437","ENSG00000184381",0.135783210330517
"880","ENSG00000132437","ENSG00000196998",-0.590461940641424
"881","ENSG00000134343","ENSG00000135917",1.83731545190469
"882","ENSG00000134343","ENSG00000141404",-0.608915387954727
"883","ENSG00000134343","ENSG00000151552",1.94826566131007
"884","ENSG00000134343","ENSG00000160710",-0.778616349915712
"885","ENSG00000134343","ENSG00000165704",-0.544578741679628
"886","ENSG00000134343","ENSG00000170266",0.0951070968338274
"887","ENSG00000134343","ENSG00000176165",2.58923194863421
"888","ENSG00000134343","ENSG00000180176",-1.24653394291815
"889","ENSG00000134343","ENSG00000180228",-0.244832694925969
"890","ENSG00000134343","ENSG00000184381",0.22190861475026
"891","ENSG00000134343","ENSG00000196998",0.47274752760987
"892","ENSG00000135917","ENSG00000141404",1.95355854019195
"893","ENSG00000135917","ENSG00000151552",2.44839690291982
"894","ENSG00000135917","ENSG00000160710",0.15643849311151
"895","ENSG00000135917","ENSG00000165704",0.292909672537258
"896","ENSG00000135917","ENSG00000170266",1.01689096883036
"897","ENSG00000135917","ENSG00000176165",-1.22109155380513
"898","ENSG00000135917","ENSG00000180176",-1.29277584485444
"899","ENSG00000135917","ENSG00000180228",-0.0783864814350403
"900","ENSG00000135917","ENSG00000184381",-0.0553471933443667
"901","ENSG00000135917","ENSG00000196998",-0.835827256988506
"902","ENSG00000141404","ENSG00000151552",-0.0547331266628006
"903","ENSG00000141404","ENSG00000160710",0.00523997219224097
"904","ENSG00000141404","ENSG00000165704",-1.95334561746971
"905","ENSG00000141404","ENSG00000170266",0.485499064759788
"906","ENSG00000141404","ENSG00000176165",-0.648058690570464
"907","ENSG00000141404","ENSG00000180176",-1.93006932529817
"908","ENSG00000141404","ENSG00000180228",-0.397043292934266
"909","ENSG00000141404","ENSG00000184381",0.637109776706043
"910","ENSG00000141404","ENSG00000196998",2.86476842618894
"911","ENSG00000151552","ENSG00000160710",2.19289258058552
"912","ENSG00000151552","ENSG00000165704",2.89415245983509
"913","ENSG00000151552","ENSG00000170266",2.0144756364404
"914","ENSG00000151552","ENSG00000176165",0.812952667681017
"915","ENSG00000151552","ENSG00000180176",0.61353729538552
"916","ENSG00000151552","ENSG00000180228",2.27434684580194
"917","ENSG00000151552","ENSG00000184381",0.242892858743754
"918","ENSG00000151552","ENSG00000196998",0.429854385105256
"919","ENSG00000160710","ENSG00000165704",-0.684812688684668
"920","ENSG00000160710","ENSG00000170266",1.76229765227469
"921","ENSG00000160710","ENSG00000176165",-1.98313609980413
"922","ENSG00000160710","ENSG00000180176",0.951249478954372
"923","ENSG00000160710","ENSG00000180228",-1.44980435963849
"924","ENSG00000160710","ENSG00000184381",-1.32125202677744
"925","ENSG00000160710","ENSG00000196998",1.11002693327154
"926","ENSG00000165704","ENSG00000170266",-0.972265672788766
"927","ENSG00000165704","ENSG00000176165",0.777748262116541
"928","ENSG00000165704","ENSG00000180176",0.0553139499556965
"929","ENSG00000165704","ENSG00000180228",2.73909000393407
"930","ENSG00000165704","ENSG00000184381",-0.646848162229227
"931","ENSG00000165704","ENSG00000196998",3.42862432415295
"932","ENSG00000170266","ENSG00000176165",0.189467647470097
"933","ENSG00000170266","ENSG00000180176",0.120186077302612
"934","ENSG00000170266","ENSG00000180228",-2.72821156017158
"935","ENSG00000170266","ENSG00000184381",-2.18167113751972
"936","ENSG00000170266","ENSG00000196998",-0.699596165151236
"937","ENSG00000176165","ENSG00000180176",-0.796852232631744
"938","ENSG00000176165","ENSG00000180228",-0.842598895918029
"939","ENSG00000176165","ENSG00000184381",1.4039031249385
"940","ENSG00000176165","ENSG00000196998",1.21623432038277
"941","ENSG00000180176","ENSG00000180228",0.709209403252063
"942","ENSG00000180176","ENSG00000184381",-0.576600007970984
"943","ENSG00000180176","ENSG00000196998",-1.23509932915659
"944","ENSG00000180228","ENSG00000184381",0.0449215622878622
"945","ENSG00000180228","ENSG00000196998",-2.8967706998273
"946","ENSG00000184381","ENSG00000196998",2.35300946869809
