"","V1","V2","V3"
"NS1 Mediated Effects on Host Pathways",1,1,1
"2-LTR circle formation",1,1,1
"3' -UTR-mediated translational regulation",1,1,1
"5-Phosphoribose 1-diphosphate biosynthesis",1,1,1
"A tetrasaccharide linker sequence is required for GAG synthesis",1,1,1
"A third proteolytic cleavage releases NICD",1,1,1
"ABC transporter disorders",1,1,1
"ABC transporters in lipid homeostasis",1,1,1
"ABC-family proteins mediated transport",1,1,1
"ADP signalling through P2Y purinoceptor 1",1,0.0491797001576344,0.0987076823989198
"ADP signalling through P2Y purinoceptor 12",1,0.0434006865169215,0.0873823360268114
"AKT phosphorylates targets in the cytosol",1,1,1
"AKT phosphorylates targets in the nucleus",1,1,1
"AKT-mediated inactivation of FOXO1A",1,1,1
"ALKBH2 mediated reversal of alkylation damage",1,1,1
"ALKBH3 mediated reversal of alkylation damage",1,1,1
"AMER1 mutants destabilize the destruction complex",1,1,1
"AMPK inhibits chREBP transcriptional activation activity",1,1,1
"APC truncation mutants are not K63 polyubiquitinated",1,1,1
"APC truncation mutants have impaired AXIN binding",1,1,1
"APC-Cdc20 mediated degradation of Nek2A",1,1,1
"APC/C-mediated degradation of cell cycle proteins",1,1,1
"APC/C:Cdc20 mediated degradation of Cyclin B",1,1,1
"APC/C:Cdc20 mediated degradation of Securin",1,1,1
"APC/C:Cdc20 mediated degradation of mitotic proteins",1,1,1
"APC/C:Cdh1 mediated degradation of Cdc20 and other APC/C:Cdh1 targeted proteins in late mitosis/early G1",1,1,1
"APC:Cdc20 mediated degradation of cell cycle proteins prior to satisfation of the cell cycle checkpoint",1,1,1
"APEX1-Independent Resolution of AP Sites via the Single Nucleotide Replacement Pathway",1,1,1
"APOBEC3G mediated resistance to HIV-1 infection",1,1,1
"ARL13B-mediated ciliary trafficking of INPP5E",1,1,1
"ARMS-mediated activation",1,1,1
"ATF4 activates genes",1,1,1
"ATF6-alpha activates chaperone genes",1,1,1
"ATF6-alpha activates chaperones",1,1,1
"ATP sensitive Potassium channels",1,1,1
"AUF1 (hnRNP D0) binds and destabilizes mRNA",1,1,1
"AXIN missense mutants destabilize the destruction complex",1,1,1
"AXIN mutants destabilize the destruction complex, activating WNT signaling",1,1,1
"Abacavir metabolism",1,1,1
"Abacavir transmembrane transport",1,1,1
"Abacavir transport and metabolism",1,1,1
"Abasic sugar-phosphate removal via the single-nucleotide replacement pathway",1,1,1
"Abnormal conversion of 2-oxoglutarate to 2-hydroxyglutarate",1,1,1
"Abortive elongation of HIV-1 transcript in the absence of Tat",1,1,1
"Acetylation",1,1,1
"Acetylcholine Binding And Downstream Events",1,1,1
"Acetylcholine Neurotransmitter Release Cycle",1,1,1
"Acetylcholine regulates insulin secretion",1,1,1
"Acrosome Reaction",1,1,1
"Activated NOTCH1 Transmits Signal to the Nucleus",1,1,1
"Activated PKN1 stimulates transcription of AR (androgen receptor) regulated genes KLK2 and KLK3",1,1,1
"Activated TLR4 signalling",1,1,1
"Activated point mutants of FGFR2",1,1,1
"Activation and oligomerization of BAK protein",1,1,1
"Activation of AKT2",1,1,1
"Activation of AMPA receptors",1,1,1
"Activation of APC/C and APC/C:Cdc20 mediated degradation of mitotic proteins",1,1,1
"Activation of ATR in response to replication stress",1,1,1
"Activation of BAD and translocation to mitochondria",1,1,1
"Activation of BH3-only proteins",1,1,1
"Activation of BIM and translocation to mitochondria",1,1,1
"Activation of BMF and translocation to mitochondria",1,1,1
"Activation of C3 and C5",1,1,1
"Activation of Ca-permeable Kainate Receptor",1,1,1
"Activation of CaMK IV",1,1,1
"Activation of DNA fragmentation factor",1,1,1
"Activation of G protein gated Potassium channels",1,0.0491797001576344,0.0987076823989198
"Activation of GABAB receptors",0.00270342725979195,0.0757166370352731,0.000537382680375495
"Activation of HOX genes during differentiation",1,1,1
"Activation of IRF3/IRF7 mediated by TBK1/IKK epsilon",1,1,1
"Activation of Kainate Receptors upon glutamate binding",1,0.058738431205016,0.117280544604326
"Activation of Matrix Metalloproteinases",1,1,1
"Activation of NF-kappaB in B cells",1,1,1
"Activation of NIMA Kinases NEK9, NEK6, NEK7",1,1,1
"Activation of NMDA receptor upon glutamate binding and postsynaptic events",1,1,1
"Activation of NOXA and translocation to mitochondria",1,1,1
"Activation of Na-permeable Kainate Receptors",1,1,1
"Activation of Nicotinic Acetylcholine Receptors",1,1,1
"Activation of PPARGC1A (PGC-1alpha) by phosphorylation",1,1,1
"Activation of PUMA and translocation to mitochondria",1,1,1
"Activation of RAS in B cells",1,1,1
"Activation of Rac",1,1,1
"Activation of SMO",1,1,1
"Activation of TRKA receptors",1,1,1
"Activation of anterior HOX genes in hindbrain development during early embryogenesis",1,1,1
"Activation of caspases through apoptosome-mediated cleavage",1,1,1
"Activation of gene expression by SREBF (SREBP)",1,1,1
"Activation of the AP-1 family of transcription factors",1,1,1
"Activation of the mRNA upon binding of the cap-binding complex and eIFs, and subsequent binding to 43S",1,1,1
"Activation of the phototransduction cascade",1,0.0219268894252078,0.0446612285699368
"Activation of the pre-replicative complex",1,1,1
"Activation, myristolyation of BID and translocation to mitochondria",1,1,1
"Activation, translocation and oligomerization of BAX",1,1,1
"Acyl chain remodeling of CL",1,0.012016824174134,0.0246062313600613
"Acyl chain remodeling of DAG and TAG",1,1,1
"Acyl chain remodelling of PC",1,0.0491797001576344,0.0987076823989198
"Acyl chain remodelling of PE",1,0.0453306875054347,0.0911727262296192
"Acyl chain remodelling of PG",1,1,1
"Acyl chain remodelling of PI",1,1,1
"Acyl chain remodelling of PS",1,1,1
"Adaptive Immune System",0.39134554562156,0.39134554562156,0.114415657989853
"Adenosine P1 receptors",1,1,1
"Adenylate cyclase activating pathway",0.000169906435602273,1,0.000734762782281126
"Adenylate cyclase inhibitory pathway",0.00034196515304579,1,0.00147046939181527
"Adherens junctions interactions",1,1,1
"Adrenaline signalling through Alpha-2 adrenergic receptor",1,1,1
"Adrenaline,noradrenaline inhibits insulin secretion",0.0549258435587871,0.0549258435587871,0.00589007500783689
"Adrenoceptors",1,1,1
"Advanced glycosylation endproduct receptor signaling",1,1,1
"Aflatoxin activation and detoxification",1,1,1
"Agmatine biosynthesis",1,1,1
"Alpha-defensins",1,1,1
"Alpha-oxidation of phytanate",1,1,1
"Alternative complement activation",1,1,1
"Amine Oxidase reactions",1,1,1
"Amine compound SLC transporters",0.058738431205016,1,0.117280544604326
"Amine ligand-binding receptors",1,1,1
"Amine-derived hormones",0.000572236470399528,1,0.00244675429742393
"Amino Acid conjugation",1,1,1
"Amino acid and oligopeptide SLC transporters",1,1,1
"Amino acid synthesis and interconversion (transamination)",1,1,1
"Amino acid transport across the plasma membrane",1,1,1
"Amplification  of signal from unattached  kinetochores via a MAD2  inhibitory signal",1,1,1
"Amplification of signal from the kinetochores",1,1,1
"Amyloid fiber formation",1,1,1
"Anchoring fibril formation",1,1,1
"Anchoring of the basal body to the plasma membrane",0.161504830104284,1,0.30441408136837
"Androgen biosynthesis",1,1,1
"Antagonism of Activin by Follistatin",1,1,1
"Antigen Presentation: Folding, assembly and peptide loading of class I MHC",1,1,1
"Antigen activates B Cell Receptor (BCR) leading to generation of second messengers",1,1,1
"Antigen processing-Cross presentation",1,1,1
"Antigen processing: Ubiquitination & Proteasome degradation",1,1,1
"Antiviral mechanism by IFN-stimulated genes",1,1,1
"Apoptosis",1,1,1
"Apoptosis induced DNA fragmentation",1,1,1
"Apoptotic cleavage of cell adhesion  proteins",1,1,1
"Apoptotic cleavage of cellular proteins",1,1,1
"Apoptotic execution  phase",1,1,1
"Apoptotic factor-mediated response",1,1,1
"Aquaporin-mediated transport",0.0979062021415964,0.0979062021415964,0.0187208010708918
"Arachidonate production from DAG",1,1,1
"Arachidonic acid metabolism",1,1,1
"Aromatic amines can be N-hydroxylated or N-dealkylated by CYP1A2",1,1,1
"Asparagine N-linked glycosylation",0.405163082724243,1,1
"Assembly Of The HIV Virion",1,1,1
"Assembly of Viral Components at the Budding Site",1,1,1
"Assembly of collagen fibrils and other multimeric structures",1,1,1
"Assembly of the ORC complex at the origin of replication",1,1,1
"Assembly of the pre-replicative complex",1,1,1
"Assembly of the primary cilium",0.301102320498936,1,0.522066409865078
"Association of TriC/CCT with target proteins during biosynthesis",1,1,1
"Association of licensing factors with the pre-replicative complex",1,1,1
"Astrocytic Glutamate-Glutamine Uptake And Metabolism",1,1,1
"Asymmetric localization of PCP proteins",1,1,1
"Attachment of GPI anchor to uPAR",1,1,1
"Attenuation phase",1,1,1
"Autodegradation of Cdh1 by Cdh1:APC/C",1,1,1
"Autodegradation of the E3 ubiquitin ligase COP1",1,1,1
"Autointegration results in viral DNA circles",1,1,1
"Axon guidance",0.620750712113037,0.620750712113037,0.271512116038529
"Axonal growth inhibition (RHOA activation)",1,1,1
"Axonal growth stimulation",1,1,1
"B-WICH complex positively regulates rRNA expression",1,1,1
"BBSome-mediated cargo-targeting to cilium",1,1,1
"BH3-only proteins associate with and inactivate anti-apoptotic BCL-2 members",1,1,1
"BMAL1:CLOCK,NPAS2 activates circadian gene expression",1,1,1
"Base Excision Repair",1,1,1
"Base-Excision Repair, AP Site Formation",1,1,1
"Basigin interactions",1,1,1
"Beta defensins",1,1,1
"Beta oxidation of butanoyl-CoA to acetyl-CoA",1,1,1
"Beta oxidation of decanoyl-CoA to octanoyl-CoA-CoA",1,1,1
"Beta oxidation of hexanoyl-CoA to butanoyl-CoA",1,1,1
"Beta oxidation of lauroyl-CoA to decanoyl-CoA-CoA",1,1,1
"Beta oxidation of myristoyl-CoA to lauroyl-CoA",1,1,1
"Beta oxidation of octanoyl-CoA to hexanoyl-CoA",1,1,1
"Beta oxidation of palmitoyl-CoA to myristoyl-CoA",1,1,1
"Beta-catenin independent WNT signaling",1,0.252111430457294,0.450454593058795
"Beta-catenin phosphorylation cascade",1,1,1
"Beta-oxidation of pristanoyl-CoA",1,1,1
"Beta-oxidation of very long chain fatty acids",1,1,1
"Bicarbonate transporters",1,1,1
"Bile acid and bile salt metabolism",1,1,1
"Bile salt and organic anion SLC transporters",1,1,1
"Binding and Uptake of Ligands by Scavenger Receptors",1,0.139041913601547,0.265466311555381
"Binding and entry of HIV virion",1,1,1
"Binding of TCF/LEF:CTNNB1 to target gene promoters",1,1,1
"Biogenic amines are oxidatively deaminated to aldehydes by MAOA and MAOB",1,1,1
"Biological oxidations",1,1,1
"Biosynthesis of A2E, implicated in retinal degradation",1,1,1
"Biosynthesis of the N-glycan precursor (dolichol lipid-linked oligosaccharide, LLO) and transfer to a nascent protein",0.139041913601547,1,0.265466311555381
"Biotin transport and metabolism",0.0219268894252078,0.0219268894252078,0.00089570893636058
"Branched-chain amino acid catabolism",0.0453306875054347,1,0.0911727262296192
"Breakdown of the nuclear lamina",1,1,1
"Budding",1,1,1
"Budding and maturation of HIV virion",1,1,1
"Butyrate Response Factor 1 (BRF1) binds and destabilizes mRNA",1,1,1
"C-type lectin receptors (CLRs)",1,1,1
"C6 deamination of adenosine",0.00402080956660245,1,0.00826833214079485
"CASP8 activity is inhibited",1,1,1
"CD209 (DC-SIGN) signaling",1,1,1
"CD22 mediated BCR regulation",1,1,1
"CD28 co-stimulation",1,1,1
"CD28 dependent PI3K/Akt signaling",1,1,1
"CD28 dependent Vav1 pathway",1,1,1
"CDC6 association with the ORC:origin complex",1,1,1
"CDK-mediated phosphorylation and removal of Cdc6",1,1,1
"CDO in myogenesis",1,1,1
"CDT1 association with the CDC6:ORC:origin complex",1,1,1
"CHL1 interactions",1,1,1
"CLEC7A (Dectin-1) induces NFAT activation",1,1,1
"CLEC7A (Dectin-1) signaling",1,1,1
"CLEC7A/inflammasome pathway",1,1,1
"COPI Mediated Transport",1,1,1
"COPI-mediated anterograde transport",1,1,1
"COPII (Coat Protein 2) Mediated Vesicle Transport",1,1,1
"COX reactions",1,1,1
"CREB phosphorylation",1,1,1
"CREB phosphorylation through the activation of Adenylate Cyclase",1,1,1
"CREB phosphorylation through the activation of CaMKII",1,1,1
"CREB phosphorylation through the activation of CaMKK",1,1,1
"CREB phosphorylation through the activation of Ras",1,1,1
"CRMPs in Sema3A signaling",1,1,1
"CS/DS degradation",1,1,1
"CTLA4 inhibitory signaling",1,1,1
"CYP2E1 reactions",1,1,1
"Ca-dependent events",0.0549258435587871,1,0.109896451274765
"Ca2+ activated K+ channels",1,1,1
"Ca2+ pathway",1,0.114218294769041,0.221153977943652
"CaM pathway",0.0510987248634779,1,0.102452367954005
"CaMK IV-mediated phosphorylation of CREB",1,1,1
"Calcitonin-like ligand receptors",1,1,1
"Calmodulin induced events",0.0510987248634779,1,0.102452367954005
"Calnexin/calreticulin cycle",1,1,1
"Cam-PDE 1 activation",1,1,1
"Cap-dependent Translation Initiation",1,1,1
"Cardiac conduction",0.239757416704845,1,0.431583246149004
"Cargo concentration in the ER",1,1,1
"Cargo trafficking to the periciliary membrane",1,1,1
"Carnitine synthesis",1,1,1
"Caspase activation via extrinsic apoptotic signalig pathway",1,1,1
"Caspase-mediated cleavage of cytoskeletal proteins",1,1,1
"Catabolism of glucuronate to xylulose-5-phosphate",1,1,1
"Catecholamine biosynthesis",2.28157512664651e-05,1,9.95116888309895e-05
"Cation-coupled Chloride cotransporters",1,1,1
"Cdc20:Phospho-APC/C mediated degradation of Cyclin A",1,1,1
"Cell Cycle",1,0.622270830769485,0.72516642719178
"Cell Cycle Checkpoints",1,1,1
"Cell Cycle, Mitotic",0.605181508362194,1,1
"Cell death signalling via NRAGE, NRIF and NADE",1,1,1
"Cell junction organization",1,1,1
"Cell redox homeostasis",1,1,1
"Cell surface interactions at the vascular wall",1,1,1
"Cell-Cell communication",1,1,1
"Cell-cell junction organization",1,1,1
"Cell-extracellular matrix interactions",1,1,1
"Cellular Senescence",1,1,1
"Cellular response to heat stress",1,1,1
"Cellular response to hypoxia",1,1,1
"Cellular responses to stress",1,0.52438271227254,1
"Centrosome maturation",0.133778338723966,1,0.256181957274684
"Ceramide signalling",1,1,1
"ChREBP activates metabolic gene expression",1,1,1
"Chaperonin-mediated protein folding",0.0997325204175989,1,0.194677949005783
"Chemokine receptors bind chemokines",1,1,1
"Chk1/Chk2(Cds1) mediated inactivation of Cyclin B:Cdk1 complex",1,1,1
"Cholesterol biosynthesis",1,1,1
"Cholesterol biosynthesis via desmosterol",1,1,1
"Cholesterol biosynthesis via lathosterol",1,1,1
"Chondroitin sulfate biosynthesis",1,1,1
"Chondroitin sulfate/dermatan sulfate metabolism",1,1,1
"Chromatin modifying enzymes",1,1,1
"Chromatin organization",1,1,1
"Chromosome Maintenance",1,1,1
"Chylomicron-mediated lipid transport",1,1,1
"Circadian Clock",1,1,1
"Citric acid cycle (TCA cycle)",0.0375886264206296,1,0.075918794617539
"Class A/1 (Rhodopsin-like receptors)",1,1,0.640578610002707
"Class B/2 (Secretin family receptors)",1,0.156370584015751,0.295608238524184
"Class C/3 (Metabotropic glutamate/pheromone receptors)",1,1,1
"Class I MHC mediated antigen processing & presentation",1,1,0.627949526647511
"Class II GLUTs",1,1,1
"Classical Kir channels",1,1,1
"Classical antibody-mediated complement activation",1,1,1
"Clathrin derived vesicle budding",1,0.132017093867885,0.253061915149158
"Clearance of Nuclear Envelope Membranes from Chromatin",1,1,1
"Cleavage of Growing Transcript in the Termination Region",1,1,1
"Cleavage of the damaged purine",1,1,1
"Cleavage of the damaged pyrimidine",1,1,1
"Cobalamin (Cbl, vitamin B12) transport and metabolism",1,0.0414670137072649,0.0835765909727113
"Coenzyme A biosynthesis",1,0.0159921370779574,0.0326768307308408
"Cohesin Loading onto Chromatin",1,1,1
"Collagen biosynthesis and modifying enzymes",1,1,1
"Collagen degradation",1,1,1
"Collagen formation",1,1,1
"Common Pathway of Fibrin Clot Formation",1,1,1
"Complement cascade",1,1,1
"Complex I biogenesis",1,0.105190617956996,0.204707345112
"Condensation of Prometaphase Chromosomes",1,1,1
"Condensation of Prophase Chromosomes",1,1,1
"Conjugation of benzoate with glycine",1,1,1
"Conjugation of carboxylic acids",1,1,1
"Conjugation of phenylacetate with glutamine",1,1,1
"Conjugation of salicylate with glycine",1,1,1
"Constitutive Signaling by AKT1 E17K in Cancer",1,1,1
"Constitutive Signaling by Aberrant PI3K in Cancer",1,1,1
"Constitutive Signaling by EGFRvIII",1,1,1
"Constitutive Signaling by Ligand-Responsive EGFR Cancer Variants",1,1,1
"Constitutive Signaling by NOTCH1 HD Domain Mutants",1,1,1
"Constitutive Signaling by NOTCH1 HD+PEST Domain Mutants",1,1,1
"Constitutive Signaling by NOTCH1 PEST Domain Mutants",1,1,1
"Constitutive Signaling by NOTCH1 t(7;9)(NOTCH1:M1580_K2555) Translocation Mutant",1,1,1
"Conversion from APC/C:Cdc20 to APC/C:Cdh1 in late anaphase",1,1,1
"Cooperation of Prefoldin and TriC/CCT  in actin and tubulin folding",0.0606392920590805,1,0.120950241829513
"Costimulation by the CD28 family",1,1,1
"Creatine metabolism",1,1,1
"Creation of C4 and C2 activators",1,1,1
"Cross-presentation of particulate exogenous antigens (phagosomes)",1,1,1
"Cross-presentation of soluble exogenous antigens (endosomes)",1,1,1
"Crosslinking of collagen fibrils",1,1,1
"Cyclin A/B1 associated events during G2/M transition",1,1,1
"Cyclin A:Cdk2-associated events at S phase entry",1,1,1
"Cyclin B2 mediated events",1,1,1
"Cyclin D associated events in G1",1,1,1
"Cyclin E associated events during G1/S transition",1,1,1
"Cysteine formation from homocysteine",1,1,1
"Cytochrome P450 - arranged by substrate type",1,1,1
"Cytochrome c-mediated apoptotic response",1,1,1
"Cytokine Signaling in Immune system",1,0.622964300583899,0.726488326535453
"Cytosolic iron-sulfur cluster assembly",1,1,1
"Cytosolic sensors of pathogen-associated DNA",1,1,1
"Cytosolic sulfonation of small molecules",1,1,1
"Cytosolic tRNA aminoacylation",1,1,1
"DAG and IP3 signaling",0.0625365395385857,1,0.124605117279259
"DAP12 interactions",0.502923053663359,1,1
"DAP12 signaling",0.488113869347236,1,1
"DARPP-32 events",1,1,1
"DCC mediated attractive signaling",1,1,1
"DEx/H-box helicases activate type I IFN and inflammatory cytokines production",1,1,1
"DNA Damage Bypass",1,1,1
"DNA Damage Recognition in GG-NER",1,1,1
"DNA Damage Reversal",1,1,1
"DNA Damage/Telomere Stress Induced Senescence",1,1,1
"DNA Double Strand Break Response",1,1,1
"DNA Double-Strand Break Repair",1,1,1
"DNA Repair",1,1,0.631726280572017
"DNA Replication",1,1,1
"DNA Replication Pre-Initiation",1,1,1
"DNA methylation",1,1,1
"DNA replication initiation",1,1,1
"DNA strand elongation",1,1,1
"DSCAM interactions",1,1,1
"Deactivation of the beta-catenin transactivating complex",1,1,1
"Deadenylation of mRNA",1,1,1
"Deadenylation-dependent mRNA decay",1,1,1
"Death Receptor Signalling",1,1,1
"Dectin-1 mediated noncanonical NF-kB signaling",1,1,1
"Dectin-2 family",1,1,1
"Defective ABCA3 causes pulmonary surfactant metabolism dysfunction type 3 (SMDP3)",1,1,1
"Defective ABCC8 can cause hypoglycemias and hyperglycemias",1,1,1
"Defective ACTH causes Obesity and Pro-opiomelanocortinin deficiency (POMCD)",1,1,1
"Defective AMN causes hereditary megaloblastic anemia 1",1,1,1
"Defective AVP causes neurohypophyseal diabetes insipidus (NDI)",1,1,1
"Defective B3GALT6 causes EDSP2 and SEMDJL1",1,1,1
"Defective B3GAT3 causes JDSSDHD",1,1,1
"Defective B4GALT1 causes B4GALT1-CDG (CDG-2d)",1,1,1
"Defective B4GALT7 causes EDS, progeroid type",1,1,1
"Defective CD320 causes methylmalonic aciduria",1,1,1
"Defective CFTR causes cystic fibrosis",1,1,1
"Defective CHST14 causes EDS, musculocontractural type",1,1,1
"Defective CHST3 causes SEDCJD",1,1,1
"Defective CHST6 causes MCDC1",1,1,1
"Defective CHSY1 causes TPBS",1,1,1
"Defective CSF2RA causes pulmonary surfactant metabolism dysfunction 4 (SMDP4)",1,1,1
"Defective CSF2RB causes pulmonary surfactant metabolism dysfunction 5 (SMDP5)",1,1,1
"Defective CUBN causes hereditary megaloblastic anemia 1",1,1,1
"Defective CYP11A1 causes Adrenal insufficiency, congenital, with 46,XY sex reversal (AICSR)",1,1,1
"Defective EXT1 causes exostoses 1, TRPS2 and CHDS",1,1,1
"Defective EXT2 causes exostoses 2",1,1,1
"Defective GIF causes intrinsic factor deficiency",1,1,1
"Defective HLCS causes multiple carboxylase deficiency",0.0140063662244823,0.0140063662244823,0.000345578580908437
"Defective MMAA causes methylmalonic aciduria type cblA",1,0.00402080956660245,0.00826833214079485
"Defective MMACHC causes methylmalonic aciduria and homocystinuria type cblC",1,1,1
"Defective MMADHC causes methylmalonic aciduria and homocystinuria type cblD",1,1,1
"Defective MTR causes methylmalonic aciduria and homocystinuria type cblG",1,1,1
"Defective MTRR causes methylmalonic aciduria and homocystinuria type cblE",1,1,1
"Defective MUT causes methylmalonic aciduria mut type",1,0.00402080956660245,0.00826833214079485
"Defective SFTPA2 causes idiopathic pulmonary fibrosis (IPF)",1,1,1
"Defective SLCO1B1 causes hyperbilirubinemia, Rotor type (HBLRR)",1,1,1
"Defective SLCO1B3 causes hyperbilirubinemia, Rotor type (HBLRR)",1,1,1
"Defective ST3GAL3 causes MCT12 and EIEE15",1,1,1
"Defective TCN2 causes hereditary megaloblastic anemia",1,1,1
"Defective TRP may confer susceptibility towards thyroid papillary carcinoma (TPC)",1,1,1
"Defective pro-SFTPB causes pulmonary surfactant metabolism dysfunction 1 (SMDP1) and respiratory distress syndrome (RDS)",1,1,1
"Defective pro-SFTPC causes pulmonary surfactant metabolism dysfunction 2 (SMDP2) and respiratory distress syndrome (RDS)",1,1,1
"Defects in biotin (Btn) metabolism",0.0140063662244823,0.0140063662244823,0.000345578580908437
"Defects in cobalamin (B12) metabolism",1,0.0219268894252078,0.0446612285699368
"Defects in vitamin and cofactor metabolism",0.0356438988144428,0.000572236470399528,5.09288943092525e-05
"Defensins",1,1,1
"Degradation of AXIN",1,1,1
"Degradation of DVL",1,1,1
"Degradation of GABA",1,1,1
"Degradation of GLI1 by the proteasome",1,1,1
"Degradation of GLI2 by the proteasome",1,1,1
"Degradation of beta-catenin by the destruction complex",1,1,1
"Degradation of cysteine and homocysteine",1,1,1
"Degradation of the extracellular matrix",1,1,1
"Deletions in the AMER1 gene destabilize the destruction complex",1,1,1
"Deletions in the AXIN genes in hepatocellular carcinoma result in elevated WNT signaling",1,1,1
"Depolarization of the Presynaptic Terminal Triggers the Opening of Calcium Channels",1,1,1
"Depolymerisation of the Nuclear Lamina",1,1,1
"Deposition of new CENPA-containing nucleosomes at the centromere",1,1,1
"Depurination",1,1,1
"Depyrimidination",1,1,1
"Dermatan sulfate biosynthesis",1,1,1
"Detoxification of Reactive Oxygen Species",1,1,1
"Developmental Biology",0.395711833602875,0.395711833602875,0.071762784273349
"Digestion of dietary carbohydrate",1,1,1
"Digestion of dietary lipid",1,1,1
"Dimerization of procaspase-8",1,1,1
"Disassembly of the destruction complex and recruitment of AXIN to the membrane",1,1,1
"Disease",1,0.14207305399948,0.347683647555629
"Diseases associated with glycosaminoglycan metabolism",1,1,1
"Diseases associated with surfactant metabolism",1,1,1
"Diseases associated with the TLR signaling cascade",1,1,1
"Diseases associated with visual transduction",1,1,1
"Diseases of Immune System",1,1,1
"Diseases of carbohydrate metabolism",1,1,1
"Diseases of glycosylation",1,1,1
"Diseases of metabolism",0.0868748553968823,0.00358634512844491,0.000820314969183666
"Diseases of signal transduction",1,1,0.628593306390183
"Disinhibition of SNARE formation",1,1,1
"Disorders of transmembrane transporters",1,1,1
"Displacement of DNA glycosylase by APEX1",1,1,1
"Dissolution of Fibrin Clot",1,1,1
"Dopamine Neurotransmitter Release Cycle",1,1,1
"Dopamine clearance from the synaptic cleft",0.00602550365106466,1,0.012377555341348
"Dopamine receptors",1,1,1
"Downregulation of ERBB2:ERBB3 signaling",1,1,1
"Downregulation of ERBB4 signaling",1,1,1
"Downregulation of SMAD2/3:SMAD4 transcriptional activity",1,1,1
"Downregulation of TGF-beta receptor signaling",1,1,1
"Downstream TCR signaling",1,1,1
"Downstream signal transduction",0.484886908121219,1,1
"Downstream signaling events of B Cell Receptor (BCR)",1,1,1
"Downstream signaling of activated FGFR1",0.471786604434854,1,1
"Downstream signaling of activated FGFR2",0.471786604434854,1,1
"Downstream signaling of activated FGFR3",0.471786604434854,1,1
"Downstream signaling of activated FGFR4",0.471786604434854,1,1
"Dual Incision in GG-NER",1,1,1
"Dual incision in TC-NER",1,1,1
"E2F mediated regulation of DNA replication",1,1,1
"E2F-enabled inhibition of pre-replication complex formation",1,1,1
"ECM proteoglycans",1,1,1
"EGFR Transactivation by Gastrin",1,1,1
"EGFR downregulation",1,1,1
"EGFR interacts with phospholipase C-gamma",0.0663202201239543,1,0.131870635074671
"EPH-Ephrin signaling",1,1,1
"EPH-ephrin mediated repulsion of cells",1,1,1
"EPHA-mediated growth cone collapse",1,1,1
"EPHB-mediated forward signaling",1,1,1
"ER Quality Control Compartment (ERQC)",1,1,1
"ER to Golgi Anterograde Transport",1,1,1
"ER-Phagosome pathway",1,1,1
"ERK/MAPK targets",1,1,1
"ERKs are inactivated",1,1,1
"Early Phase of HIV Life Cycle",1,1,1
"Effects of PIP2 hydrolysis",1,1,1
"Eicosanoid ligand-binding receptors",1,1,1
"Eicosanoids",1,1,1
"Elastic fibre formation",1,1,1
"Electric Transmission Across Gap Junctions",1,1,1
"Electron transport from NADPH to Ferredoxin",1,1,1
"Elevation of cytosolic Ca2+ levels",1,1,1
"Elongation arrest and recovery",1,1,1
"Endogenous sterols",1,1,1
"Endosomal Sorting Complex Required For Transport (ESCRT)",1,1,1
"Endosomal/Vacuolar pathway",1,1,1
"Energy dependent regulation of mTOR by LKB1-AMPK",1,1,1
"Entry of Influenza Virion into Host Cell via Endocytosis",1,1,1
"Enzymatic degradation of Dopamine by monoamine oxidase",1,1,1
"Enzymatic degradation of dopamine by COMT",1,1,1
"Ephrin signaling",1,1,1
"Epigenetic regulation of gene expression",1,1,1
"Erythrocytes take up carbon dioxide and release oxygen",1,1,1
"Erythrocytes take up oxygen and release carbon dioxide",1,1,1
"Establishment of Sister Chromatid Cohesion",1,1,1
"Estrogen biosynthesis",1,1,1
"Ethanol oxidation",1,1,1
"Eukaryotic Translation Elongation",1,1,1
"Eukaryotic Translation Initiation",1,1,1
"Eukaryotic Translation Termination",1,1,1
"Export of Viral Ribonucleoproteins from Nucleus",1,1,1
"Extension of Telomeres",1,1,1
"Extracellular matrix organization",1,1,0.627659777246568
"Extrinsic Pathway of Fibrin Clot Formation",1,1,1
"FBXW7 Mutants and NOTCH1 in Cancer",1,1,1
"FCERI mediated Ca+2 mobilization",1,1,1
"FCERI mediated MAPK activation",1,1,0.630560935288583
"FCERI mediated NF-kB activation",1,1,1
"FCGR activation",1,1,1
"FGFR1 ligand binding and activation",1,1,1
"FGFR1 mutant receptor activation",1,1,1
"FGFR1b ligand binding and activation",1,1,1
"FGFR1c and Klotho ligand binding and activation",1,1,1
"FGFR1c ligand binding and activation",1,1,1
"FGFR2 ligand binding and activation",1,1,1
"FGFR2 mutant receptor activation",1,1,1
"FGFR2b ligand binding and activation",1,1,1
"FGFR2c ligand binding and activation",1,1,1
"FGFR3 ligand binding and activation",1,1,1
"FGFR3 mutant receptor activation",1,1,1
"FGFR3b ligand binding and activation",1,1,1
"FGFR3c ligand binding and activation",1,1,1
"FGFR4 ligand binding and activation",1,1,1
"FGFR4 mutant receptor activation",1,1,1
"FMO oxidises nucleophiles",1,1,1
"FRS-mediated FGFR1 signaling",1,1,1
"FRS-mediated FGFR2 signaling",1,1,1
"FRS-mediated FGFR3 signaling",1,1,1
"FRS-mediated FGFR4 signaling",1,1,1
"Facilitative Na+-independent glucose transporters",1,1,1
"Factors involved in megakaryocyte development and platelet production",1,1,1
"Fanconi Anemia Pathway",1,1,1
"FasL/ CD95L signaling",1,1,1
"Fatty Acids bound to GPR40 (FFAR1) regulate insulin secretion",1,1,1
"Fatty Acyl-CoA Biosynthesis",1,1,1
"Fatty acid, triacylglycerol, and ketone body metabolism",0.0660360816254796,0.0660360816254796,0.0107969334362527
"Fatty acids",1,1,1
"Fc epsilon receptor (FCERI) signaling",1,1,0.405601250271881
"Fcgamma receptor (FCGR) dependent phagocytosis",1,0.219271662143659,0.39956695665612
"Fertilization",1,1,1
"Fibronectin matrix formation",1,1,1
"Ficolins bind to repetitive carbohydrate structures on the target cell surface",1,1,1
"Folding of actin by CCT/TriC",1,1,1
"Formation of ATP by chemiosmotic coupling",1,1,1
"Formation of Fibrin Clot (Clotting Cascade)",1,1,1
"Formation of HIV elongation complex in the absence of HIV Tat",1,1,1
"Formation of HIV-1 elongation complex containing HIV-1 Tat",1,1,1
"Formation of Incision Complex in GG-NER",1,1,1
"Formation of RNA Pol II elongation complex",1,1,1
"Formation of Senescence-Associated Heterochromatin Foci (SAHF)",1,1,1
"Formation of TC-NER Pre-Incision Complex",1,1,1
"Formation of a pool of free 40S subunits",1,1,1
"Formation of annular gap junctions",1,1,1
"Formation of apoptosome",1,1,1
"Formation of editosomes by ADAR proteins",0.00402080956660245,1,0.00826833214079485
"Formation of the Early Elongation Complex",1,1,1
"Formation of the Editosome",1,1,1
"Formation of the HIV-1 Early Elongation Complex",1,1,1
"Formation of the active cofactor, UDP-glucuronate",1,1,1
"Formation of the beta-catenin:TCF transactivating complex",1,1,1
"Formation of the ternary complex, and subsequently, the 43S complex",1,1,1
"Formation of tubulin folding intermediates by CCT/TriC",0.0472570232101716,1,0.0949478217176282
"Formyl peptide receptors bind formyl peptides and many other ligands",1,1,1
"Free fatty acid receptors",1,1,1
"Free fatty acids regulate insulin secretion",1,1,1
"Frs2-mediated activation",1,1,1
"Fructose biosynthesis",1,1,1
"Fructose catabolism",1,1,1
"Fructose metabolism",1,1,1
"Fusion and Uncoating of the Influenza Virion",1,1,1
"Fusion of the Influenza Virion to the Host Cell Endosome",1,1,1
"G alpha (12/13) signalling events",1,0.140789738711265,0.268536004581716
"G alpha (i) signalling events",0.379968077056678,0.379968077056678,0.252735676288435
"G alpha (q) signalling events",1,0.322357696049317,0.551538094142333
"G alpha (s) signalling events",0.241312105014242,0.241312105014242,0.108541489840854
"G alpha (z) signalling events",0.0887221869996733,0.0887221869996733,0.0153940819859276
"G beta:gamma signalling through PI3Kgamma",1,0.0924063028186435,0.181114112229268
"G beta:gamma signalling through PLC beta",1,0.0395296625282165,0.0797554307015706
"G protein gated Potassium channels",1,0.0491797001576344,0.0987076823989198
"G-protein activation",1,0.0549258435587871,0.109896451274765
"G-protein beta:gamma signalling",1,0.0979062021415964,0.191307594852393
"G-protein mediated events",0.00358634512844491,1,0.0147628202920496
"G0 and Early G1",1,1,1
"G1 Phase",1,1,1
"G1/S DNA Damage Checkpoints",1,1,1
"G1/S Transition",1,1,1
"G1/S-Specific Transcription",1,1,1
"G2 Phase",1,1,1
"G2/M Checkpoints",1,1,1
"G2/M DNA damage checkpoint",1,1,1
"G2/M DNA replication checkpoint",1,1,1
"G2/M Transition",0.204786081997209,1,0.376382739939027
"GAB1 signalosome",1,1,1
"GABA A (rho) receptor activation",1,1,1
"GABA A receptor activation",1,1,1
"GABA B receptor activation",0.00270342725979195,0.0757166370352731,0.000537382680375495
"GABA receptor activation",0.00531634647433966,0.105190617956996,0.00147427438205866
"GABA synthesis",1,1,1
"GABA synthesis, release, reuptake and degradation",1,1,1
"GDP-fucose biosynthesis",1,1,1
"GLI proteins bind promoters of Hh responsive genes to promote transcription",1,1,1
"GLI3 is processed to GLI3R by the proteasome",1,1,1
"GP1b-IX-V activation signalling",1,1,1
"GPCR downstream signaling",1,0.711983429880721,0.792045369016207
"GPCR ligand binding",1,0.594980293115005,1
"GPVI-mediated activation cascade",1,1,1
"GRB2 events in EGFR signaling",1,1,1
"GRB2 events in ERBB2 signaling",1,1,1
"GRB2:SOS provides linkage to MAPK signaling for Integrins",1,1,1
"GRB7 events in ERBB2 signaling",1,1,1
"GTP hydrolysis and joining of the 60S ribosomal subunit",1,1,1
"Galactose catabolism",1,1,1
"Gamma carboxylation, hypusine formation and arylsulfatase activation",1,1,1
"Gamma-carboxylation of protein precursors",1,1,1
"Gamma-carboxylation, transport, and amino-terminal cleavage of proteins",1,1,1
"Gap junction assembly",1,1,1
"Gap junction degradation",1,1,1
"Gap junction trafficking",1,1,1
"Gap junction trafficking and regulation",1,1,1
"Gap-filling DNA repair synthesis and ligation in GG-NER",1,1,1
"Gap-filling DNA repair synthesis and ligation in TC-NER",1,1,1
"Gastrin-CREB signalling pathway via PKC and MAPK",1,0.582765421291278,1
"Gene Expression",0.503599582959706,0.747041845712603,0.644210648715888
"Gene Silencing by RNA",1,0.186737925103214,0.346863649559431
"Generation of second messenger molecules",1,1,1
"Generic Transcription Pathway",0.623219258410992,0.623219258410992,0.168735172697822
"Global Genome Nucleotide Excision Repair (GG-NER)",1,1,1
"Glucagon signaling in metabolic regulation",0.0644301800837193,0.0644301800837193,0.00812154015591011
"Glucagon-like Peptide-1 (GLP1) regulates insulin secretion",0.0813116902835462,0.0813116902835462,0.0129390106075005
"Glucagon-type ligand receptors",1,0.058738431205016,0.117280544604326
"Glucocorticoid biosynthesis",1,1,1
"Gluconeogenesis",1,1,1
"Glucose metabolism",1,1,1
"Glucose transport",1,1,1
"Glucuronidation",1,1,1
"Glutamate Binding, Activation of AMPA Receptors and Synaptic Plasticity",1,1,1
"Glutamate Neurotransmitter Release Cycle",1,1,1
"Glutathione conjugation",1,1,1
"Glutathione synthesis and recycling",1,1,1
"Glycerophospholipid biosynthesis",1,0.180079902746295,0.335796467665329
"Glycine degradation",1,1,1
"Glycogen breakdown (glycogenolysis)",1,1,1
"Glycogen storage disease type 0 (liver GYS2)",1,1,1
"Glycogen storage disease type 0 (muscle GYS1)",1,1,1
"Glycogen storage disease type II (GAA)",1,1,1
"Glycogen storage disease type IV (GBE1)",1,1,1
"Glycogen storage disease type XV (GYG1)",1,1,1
"Glycogen storage diseases",1,1,1
"Glycogen synthesis",1,1,1
"Glycolysis",1,1,1
"Glycoprotein hormones",1,1,1
"Glycosaminoglycan metabolism",0.216074271657745,1,0.394488401067866
"Glycosphingolipid metabolism",0.07758520846712,1,0.153317464061436
"Glyoxylate metabolism and glycine degradation",1,1,1
"Golgi Associated Vesicle Biogenesis",1,0.103374722111856,0.201377770599909
"Golgi Cisternae Pericentriolar Stack Reorganization",1,1,1
"Golgi to ER Retrograde Transport",1,1,1
"Growth hormone receptor signaling",1,1,1
"HATs acetylate histones",1,1,1
"HCN channels",1,1,1
"HDACs deacetylate histones",1,1,1
"HDL-mediated lipid transport",1,1,1
"HDMs demethylate histones",1,1,1
"HDR through Homologous Recombination (HR) or Single Strand Annealing (SSA)",1,1,1
"HDR through Homologous Recombination (HRR)",1,1,1
"HDR through MMEJ (alt-NHEJ)",1,1,1
"HDR through Single Strand Annealing (SSA)",1,1,1
"HHAT G278V abrogates palmitoylation of Hh-Np",1,1,1
"HIV Infection",1,0.364372516690422,0.606957986330192
"HIV Life Cycle",1,0.249040764508625,0.445794628615725
"HIV Transcription Elongation",1,1,1
"HIV Transcription Initiation",1,0.0850239996131393,0.167328456968796
"HIV elongation arrest and recovery",1,1,1
"HS-GAG biosynthesis",1,1,1
"HS-GAG degradation",0.0414670137072649,1,0.0835765909727113
"HSF1 activation",1,1,1
"HSF1-dependent transactivation",1,1,1
"Hedgehog 'off' state",0.181749201147889,1,0.338580220944184
"Hedgehog 'on' state",1,1,1
"Hedgehog ligand biogenesis",1,1,1
"Heme biosynthesis",1,1,1
"Heme degradation",1,1,1
"Hemostasis",0.620566913589709,1,0.721238048773451
"Heparan sulfate/heparin (HS-GAG) metabolism",0.103374722111856,1,0.201377770599909
"Hexose transport",1,1,1
"Hh mutants abrogate ligand secretion",1,1,1
"Hh mutants that don't undergo autocatalytic processing are degraded by ERAD",1,1,1
"Highly calcium permeable nicotinic acetylcholine receptors",1,1,1
"Highly calcium permeable postsynaptic nicotinic acetylcholine receptors",1,1,1
"Highly sodium permeable acetylcholine nicotinic receptors",1,1,1
"Histamine receptors",1,1,1
"Histidine catabolism",1,1,1
"Histidine, lysine, phenylalanine, tyrosine, proline and tryptophan catabolism",1,0.00298458308149226,0.0123547395622105
"Homologous DNA Pairing and Strand Exchange",1,1,1
"Homology Directed Repair",1,1,1
"Hormone ligand-binding receptors",1,1,1
"Hormone-sensitive lipase (HSL)-mediated triacylglycerol hydrolysis",1,1,1
"Host Interactions of HIV factors",1,1,1
"Host Interactions with Influenza Factors",1,1,1
"HuR (ELAVL1) binds and stabilizes mRNA",1,1,1
"Hyaluronan biosynthesis and export",1,1,1
"Hyaluronan metabolism",1,1,1
"Hyaluronan uptake and degradation",1,1,1
"Hydrolysis of LPC",1,1,1
"Hydrolysis of LPE",1,1,1
"Hydroxycarboxylic acid-binding receptors",1,1,1
"Hypusine synthesis from eIF5A-lysine",1,1,1
"IGF1R signaling cascade",1,1,0.630342004110854
"IKBKB deficiency causes SCID",1,1,1
"IKBKG deficiency causes anhidrotic ectodermal dysplasia with immunodeficiency (EDA-ID) (via TLR)",1,1,1
"IKK complex recruitment mediated by RIP1",1,1,1
"IL-6-type cytokine receptor ligand interactions",1,1,1
"IRAK1 recruits IKK complex",1,1,1
"IRAK1 recruits IKK complex upon TLR7/8 or 9 stimulation",1,1,1
"IRAK2 mediated activation of TAK1 complex",1,1,1
"IRAK2 mediated activation of TAK1 complex upon TLR7/8 or 9 stimulation",1,1,1
"IRAK4 deficiency (TLR2/4)",1,1,1
"IRAK4 deficiency (TLR5)",1,1,1
"IRE1alpha activates chaperones",1,1,1
"IRF3 mediated activation of type 1 IFN",1,1,1
"IRF3-mediated induction of type I IFN",1,1,1
"IRS activation",1,1,1
"IRS-mediated signalling",1,1,0.629514819247234
"IRS-related events triggered by IGF1R",1,1,0.630342004110854
"ISG15 antiviral mechanism",1,1,1
"IkBA variant leads to EDA-ID",1,1,1
"Immune System",0.754072896465242,0.337090010582998,0.257715066555643
"Immunoregulatory interactions between a Lymphoid and a non-Lymphoid cell",1,1,1
"Import of palmitoyl-CoA into the mitochondrial matrix",1,1,1
"Inactivation of APC/C via direct inhibition of the APC/C complex",1,1,1
"Inactivation of Cdc42 and Rac",1,1,1
"Inactivation, recovery and regulation of the phototransduction cascade",1,0.0644301800837193,0.128245229064364
"Incretin synthesis, secretion, and inactivation",1,1,1
"Infectious disease",1,0.508113615238128,1
"Inflammasomes",1,1,1
"Influenza Infection",1,1,1
"Influenza Life Cycle",1,1,1
"Influenza Viral RNA Transcription and Replication",1,1,1
"Influenza Virus Induced Apoptosis",1,1,1
"Inhibition  of voltage gated Ca2+ channels via Gbeta/gamma subunits",1,0.0491797001576344,0.0987076823989198
"Inhibition of HSL",1,1,1
"Inhibition of Host mRNA Processing and RNA Silencing",1,1,1
"Inhibition of IFN-beta",1,1,1
"Inhibition of Interferon Synthesis",1,1,1
"Inhibition of PKR",1,1,1
"Inhibition of Signaling by Overexpressed EGFR",1,1,1
"Inhibition of TSC complex formation by PKB",1,1,1
"Inhibition of adenylate cyclase pathway",0.00034196515304579,1,0.00147046939181527
"Inhibition of replication initiation of damaged DNA by RB1/E2F1",1,1,1
"Inhibition of the proteolytic activity of APC/C required for the onset of anaphase by mitotic spindle checkpoint components",1,1,1
"Initial triggering of complement",1,1,1
"Initiation of Nuclear Envelope Reformation",1,1,1
"Innate Immune System",1,1,0.767628670370508
"Inositol phosphate metabolism",1,1,1
"Inositol transporters",1,1,1
"Insulin effects increased synthesis of Xylulose-5-Phosphate",1,1,1
"Insulin processing",1,1,1
"Insulin receptor recycling",1,1,1
"Insulin receptor signalling cascade",1,1,0.630127884059831
"Insulin-like Growth Factor-2 mRNA Binding Proteins (IGF2BPs/IMPs/VICKZs) bind RNA",1,1,1
"Integration of energy metabolism",0.194988904598032,0.194988904598032,0.0721539195726261
"Integration of provirus",1,1,1
"Integration of viral DNA into host genomic DNA",1,1,1
"Integrin alphaIIb beta3 signaling",1,1,1
"Integrin cell surface interactions",1,1,1
"Interaction With Cumulus Cells",1,1,1
"Interaction With The Zona Pellucida",1,1,1
"Interaction between L1 and Ankyrins",1,1,1
"Interactions of Rev with host cellular proteins",1,1,1
"Interactions of Tat with host cellular proteins",1,1,1
"Interactions of Vpr with host cellular proteins",1,1,1
"Interconversion of 2-oxoglutarate and 2-hydroxyglutarate",1,1,1
"Interconversion of polyamines",1,1,1
"Interferon Signaling",0.329306557247744,1,0.56096375265647
"Interferon alpha/beta signaling",0.12671311512762,1,0.243625315677159
"Interferon gamma signaling",1,1,1
"Interleukin receptor SHC signaling",1,1,0.626081875002213
"Interleukin-1 processing",1,1,1
"Interleukin-1 signaling",1,1,1
"Interleukin-2 signaling",1,1,0.626014411633219
"Interleukin-3, 5 and GM-CSF signaling",1,1,0.626394888361692
"Interleukin-6 family signaling",1,1,1
"Interleukin-6 signaling",1,1,1
"Interleukin-7 signaling",1,1,1
"Intraflagellar transport",1,1,1
"Intrinsic Pathway for Apoptosis",1,1,1
"Intrinsic Pathway of Fibrin Clot Formation",1,1,1
"Inwardly rectifying K+ channels",1,0.0606392920590805,0.120950241829513
"Ion channel transport",0.0616858892342649,0.338922361516161,0.0509557347633319
"Ion homeostasis",0.0979062021415964,1,0.191307594852393
"Ion transport by P-type ATPases",0.00531634647433966,1,0.0215807469469995
"Ionotropic activity of Kainate Receptors",1,1,1
"Iron uptake and transport",0.0831696133462608,0.0831696133462608,0.0135351827892098
"JNK (c-Jun kinases) phosphorylation and  activation mediated by activated human TAK1",1,1,1
"KSRP (KHSRP) binds and destabilizes mRNA",1,1,1
"Keratan sulfate biosynthesis",1,1,1
"Keratan sulfate degradation",0.0238976424037276,1,0.0486238805016803
"Keratan sulfate/keratin metabolism",0.0625365395385857,1,0.124605117279259
"Ketone body metabolism",0.0159921370779574,1,0.0326768307308408
"Kinesins",1,1,1
"L13a-mediated translational silencing of Ceruloplasmin expression",1,1,1
"L1CAM interactions",1,1,1
"LDL-mediated lipid transport",1,1,1
"LGI-ADAM interactions",1,1,1
"LRR FLII-interacting protein 1 (LRRFIP1) activates type I IFN production",1,1,1
"Lactose synthesis",1,1,1
"Lagging Strand Synthesis",1,1,1
"Laminin interactions",1,1,1
"Late Phase of HIV Life Cycle",1,0.228790348357426,0.414555603550029
"Latent infection of Homo sapiens with Mycobacterium tuberculosis",1,1,1
"Leading Strand Synthesis",1,1,1
"Lectin pathway of complement activation",1,1,1
"Leukotriene receptors",1,1,1
"Ligand-dependent caspase activation",1,1,1
"Ligand-gated ion channel transport",1,1,1
"Ligand-independent caspase activation via DCC",1,1,1
"Ligand-receptor interactions",1,1,1
"Linoleic acid (LA) metabolism",1,1,1
"Lipid digestion, mobilization, and transport",1,1,1
"Lipoprotein metabolism",1,1,1
"Localization of the PINCH-ILK-PARVIN complex to focal adhesions",1,1,1
"Loss of Function of FBXW7 in Cancer and NOTCH1 Signaling",1,1,1
"Loss of Function of SMAD2/3 in Cancer",1,1,1
"Loss of Function of SMAD4 in Cancer",1,1,1
"Loss of Function of TGFBR1 in Cancer",1,1,1
"Loss of Function of TGFBR2 in Cancer",1,1,1
"Loss of Nlp from mitotic centrosomes",0.116013512817315,1,0.224403424930417
"Loss of proteins required for interphase microtubule organization from the centrosome",0.116013512817315,1,0.224403424930417
"Lysine catabolism",1,0.0238976424037276,0.0486238805016803
"Lysosomal glycogen catabolism",1,1,1
"Lysosome Vesicle Biogenesis",1,1,1
"Lysosphingolipid and LPA receptors",1,1,1
"M Phase",1,1,0.628593306390183
"M/G1 Transition",1,1,1
"MAP kinase activation in TLR cascade",1,1,1
"MAP2K and MAPK activation",1,1,1
"MAP3K8 (TPL2)-dependent MAPK1/3 activation",1,1,1
"MAPK family signaling cascades",1,1,0.629514819247234
"MAPK targets/ Nuclear events mediated by MAP kinases",1,1,1
"MAPK1 (ERK2) activation",1,1,1
"MAPK1/MAPK3 signaling",1,1,1
"MAPK3 (ERK1) activation",1,1,1
"MAPK6/MAPK4 signaling",1,1,1
"MASTL Facilitates Mitotic Progression",1,1,1
"MGMT-mediated DNA damage reversal",1,1,1
"MHC class II antigen presentation",1,1,1
"Macroautophagy",1,0.124938353974861,0.240454123301584
"Meiosis",1,1,1
"Meiotic recombination",1,1,1
"Meiotic synapsis",1,1,1
"Melanin biosynthesis",1,1,1
"Membrane Trafficking",1,0.465119474418286,1
"Membrane binding and targetting of GAG proteins",1,1,1
"Metabolic disorders of biological oxidation enzymes",1,1,1
"Metabolism",0.00107981592616631,0.000184886496767987,1.26120084355299e-06
"Metabolism of Angiotensinogen to Angiotensins",1,1,1
"Metabolism of amino acids and derivatives",0.0263176835021253,0.139521579002527,0.0106534319745796
"Metabolism of carbohydrates",0.42820313774637,1,1
"Metabolism of fat-soluble vitamins",1,1,1
"Metabolism of folate and pterines",1,1,1
"Metabolism of ingested H2SeO4 and H2SeO3 into H2Se",1,1,1
"Metabolism of ingested MeSeO2H into MeSeH",1,1,1
"Metabolism of ingested SeMet, Sec, MeSec into H2Se",1,1,1
"Metabolism of lipids and lipoproteins",0.0335584490326399,0.129104341716989,0.0133793650044724
"Metabolism of nitric oxide",0.0395296625282165,0.00070894037648006,7.07474793903569e-05
"Metabolism of non-coding RNA",1,1,1
"Metabolism of nucleotides",1,0.15979669135195,0.301490749577771
"Metabolism of polyamines",1,1,1
"Metabolism of porphyrins",1,1,1
"Metabolism of proteins",1,0.711976260258542,0.793508139222426
"Metabolism of serotonin",1,1,1
"Metabolism of steroid hormones",1,1,1
"Metabolism of vitamin K",1,1,1
"Metabolism of vitamins and cofactors",0.0306907518988859,0.00245216891718253,0.000236613838208858
"Metabolism of water-soluble vitamins and cofactors",0.0134682779920515,0.000690726154991252,2.93058829762863e-05
"Metal ion SLC transporters",0.0491797001576344,1,0.0987076823989198
"Metallothioneins bind metals",1,1,1
"Methionine salvage pathway",1,1,1
"Methylation",1,1,1
"Methylation of MeSeH for excretion",1,1,1
"MicroRNA (miRNA) biogenesis",1,0.0453306875054347,0.0911727262296192
"Microtubule-dependent trafficking of connexons from Golgi to the plasma membrane",1,1,1
"Mineralocorticoid biosynthesis",1,1,1
"Minus-strand DNA synthesis",1,1,1
"Miscellaneous substrates",1,1,1
"Miscellaneous transport and binding events",1,1,1
"Mismatch Repair",1,1,1
"Mismatch repair (MMR) directed by MSH2:MSH3 (MutSbeta)",1,1,1
"Mismatch repair (MMR) directed by MSH2:MSH6 (MutSalpha)",1,1,1
"Misspliced GSK3beta mutants stabilize beta-catenin",1,1,1
"Misspliced LRP5 mutants have enhanced beta-catenin-dependent signaling",1,1,1
"Mitochondrial ABC transporters",1,1,1
"Mitochondrial Fatty Acid Beta-Oxidation",0.0336954731286627,0.000509257054293503,4.25615237701371e-05
"Mitochondrial Uncoupling Proteins",1,1,1
"Mitochondrial biogenesis",1,1,1
"Mitochondrial iron-sulfur cluster biogenesis",1,1,1
"Mitochondrial protein import",1,0.103374722111856,0.201377770599909
"Mitochondrial tRNA aminoacylation",1,1,1
"Mitochondrial transcription initiation",1,1,1
"Mitochondrial transcription termination",1,1,1
"Mitochondrial translation",1,1,1
"Mitochondrial translation elongation",1,1,1
"Mitochondrial translation initiation",1,1,1
"Mitochondrial translation termination",1,1,1
"Mitophagy",1,1,1
"Mitotic Anaphase",1,1,1
"Mitotic G1-G1/S phases",1,1,1
"Mitotic G2-G2/M phases",0.208026792195902,1,0.381608768425888
"Mitotic Metaphase and Anaphase",1,1,1
"Mitotic Metaphase/Anaphase Transition",1,1,1
"Mitotic Prometaphase",1,1,1
"Mitotic Prophase",1,1,1
"Mitotic Spindle Checkpoint",1,1,1
"Mitotic Telophase/Cytokinesis",1,1,1
"Molecules associated with elastic fibres",1,1,1
"Molybdenum cofactor biosynthesis",1,1,1
"Mtb iron assimilation by chelation",1,1,1
"Multifunctional anion exchangers",1,1,1
"Muscarinic acetylcholine receptors",1,1,1
"Muscle contraction",0.329306557247744,1,0.56096375265647
"MyD88 cascade initiated on plasma membrane",1,1,1
"MyD88 deficiency (TLR2/4)",1,1,1
"MyD88 deficiency (TLR5)",1,1,1
"MyD88 dependent cascade initiated on endosome",1,1,1
"MyD88-independent TLR3/TLR4 cascade",1,1,1
"MyD88:Mal cascade initiated on plasma membrane",1,1,1
"Myoclonic epilepsy of Lafora",1,1,1
"Myogenesis",1,1,1
"N-Glycan antennae elongation",1,1,1
"N-glycan antennae elongation in the medial/trans-Golgi",1,1,1
"N-glycan trimming and elongation in the cis-Golgi",1,1,1
"N-glycan trimming in the ER and Calnexin/Calreticulin cycle",1,1,1
"NADE modulates death signalling",1,1,1
"NADPH regeneration",1,1,1
"NCAM signaling for neurite out-growth",1,1,0.627659777246568
"NCAM1 interactions",1,1,1
"NEP/NS2 Interacts with the Cellular Export Machinery",1,1,1
"NF-kB activation through FADD/RIP-1 pathway mediated by caspase-8 and -10",1,1,1
"NF-kB is activated and signals survival",1,1,1
"NFG and proNGF binds to p75NTR",1,1,1
"NGF processing",1,1,1
"NGF signalling via TRKA from the plasma membrane",0.519353839150262,1,1
"NGF-independant TRKA activation",1,1,1
"NICD traffics to nucleus",1,1,1
"NIK-->noncanonical NF-kB signaling",1,1,1
"NOD1/2 Signaling Pathway",1,1,1
"NOSIP mediated eNOS trafficking",1,1,1
"NOSTRIN mediated eNOS trafficking",1,1,1
"NOTCH1 Intracellular Domain Regulates Transcription",1,1,1
"NOTCH2 Activation and Transmission of Signal to the Nucleus",1,1,1
"NOTCH2 intracellular domain regulates transcription",1,1,1
"NR1D1 (REV-ERBA) represses gene expression",1,1,1
"NRAGE signals death through JNK",1,1,1
"NRIF signals cell death from the nucleus",1,1,1
"Na+-dependent glucose transporters",1,1,1
"Na+/Cl- dependent neurotransmitter transporters",0.0375886264206296,1,0.075918794617539
"Nectin/Necl  trans heterodimerization",1,1,1
"Nef Mediated CD4 Down-regulation",1,1,1
"Nef Mediated CD8 Down-regulation",1,1,1
"Nef and signal transduction",1,1,1
"Nef mediated downregulation of CD28 cell surface expression",1,1,1
"Nef mediated downregulation of MHC class I complex cell surface expression",1,1,1
"Nef-mediates down modulation of cell surface receptors by recruiting them to clathrin adapters",1,1,1
"Negative epigenetic regulation of rRNA expression",1,1,1
"Negative feedback regulation of MAPK pathway",1,1,1
"Negative regulation of FGFR1 signaling",1,1,1
"Negative regulation of FGFR2 signaling",1,1,1
"Negative regulation of FGFR3 signaling",1,1,1
"Negative regulation of FGFR4 signaling",1,1,1
"Negative regulation of MAPK pathway",1,1,1
"Negative regulation of TCF-dependent signaling by DVL-interacting proteins",1,1,1
"Negative regulation of TCF-dependent signaling by WNT ligand antagonists",1,1,1
"Negative regulation of the PI3K/AKT network",1,1,1
"Negative regulators of RIG-I/MDA5 signaling",1,1,1
"Nephrin interactions",1,1,1
"Netrin mediated repulsion signals",1,1,1
"Netrin-1 signaling",1,1,1
"Neurofascin interactions",1,1,1
"Neuronal System",0.0185304099726219,0.444639691255081,0.0298456708808364
"Neurophilin interactions with VEGF and VEGFR",1,1,1
"Neurotoxicity of clostridium toxins",1,1,1
"Neurotransmitter Clearance In The Synaptic Cleft",0.0159921370779574,1,0.0326768307308408
"Neurotransmitter Receptor Binding And Downstream Transmission In The  Postsynaptic Cell",0.0315159814556921,0.247500985591323,0.0197952340478149
"Neurotransmitter Release Cycle",1,1,1
"Neurotransmitter uptake and Metabolism In Glial Cells",1,1,1
"Nicotinamide salvaging",1,1,1
"Nicotinate metabolism",1,1,1
"Nitric oxide stimulates guanylate cyclase",1,1,1
"NoRC negatively regulates rRNA expression",1,1,1
"Non-integrin membrane-ECM interactions",1,1,1
"Nonhomologous End-Joining (NHEJ)",1,1,1
"Nonsense Mediated Decay (NMD) enhanced by the Exon Junction Complex (EJC)",1,1,1
"Nonsense Mediated Decay (NMD) independent of the Exon Junction Complex (EJC)",1,1,1
"Nonsense-Mediated Decay (NMD)",1,1,1
"Norepinephrine Neurotransmitter Release Cycle",1,1,1
"Notch-HLH transcription pathway",1,1,1
"NrCAM interactions",1,1,1
"Nuclear Envelope Breakdown",1,1,1
"Nuclear Envelope Reassembly",1,1,1
"Nuclear Events (kinase and transcription factor activation)",1,1,1
"Nuclear Pore Complex (NPC) Disassembly",1,1,1
"Nuclear Receptor transcription pathway",1,1,1
"Nuclear import of Rev protein",1,1,1
"Nuclear signaling by ERBB4",1,1,1
"Nucleosome assembly",1,1,1
"Nucleotide Excision Repair",1,1,1
"Nucleotide-binding domain, leucine rich repeat containing receptor (NLR) signaling pathways",1,1,1
"Nucleotide-like (purinergic) receptors",1,1,1
"O-glycosylation of TSR domain-containing proteins",1,1,1
"O-linked glycosylation",1,1,1
"O-linked glycosylation of mucins",1,1,1
"O2/CO2 exchange in erythrocytes",1,1,1
"Olfactory Signaling Pathway",0.573829144158405,0.573829144158405,0.6885022290727
"Oligomerization of connexins into connexons",1,1,1
"Oncogene Induced Senescence",1,1,1
"Opioid Signalling",0.0112488757530422,0.151206760013739,0.00445478873335126
"Opsins",1,1,1
"Orc1 removal from chromatin",1,1,1
"Orexin and neuropeptides FF and QRFP bind to their respective receptors",1,1,1
"Organelle biogenesis and maintenance",0.478375461625336,1,1
"Organic anion transport",1,1,1
"Organic anion transporters",1,1,1
"Organic cation transport",1,1,1
"Organic cation/anion/zwitterion transport",1,1,1
"Other semaphorin interactions",1,1,1
"Oxidative Stress Induced Senescence",1,1,1
"Oxygen-dependent asparagine hydroxylation of Hypoxia-inducible Factor Alpha",1,1,1
"Oxygen-dependent proline hydroxylation of Hypoxia-inducible Factor Alpha",1,1,1
"P2Y receptors",1,1,1
"PAOs oxidise polyamines to amines",1,1,1
"PCNA-Dependent Long Patch Base Excision Repair",1,1,1
"PCP/CE pathway",1,1,1
"PD-1 signaling",1,1,1
"PDE3B signalling",1,1,1
"PECAM1 interactions",1,1,1
"PERK regulates gene expression",1,1,1
"PI Metabolism",1,1,1
"PI and PC transport between ER and Golgi membranes",1,1,1
"PI-3K cascade:FGFR1",1,1,1
"PI-3K cascade:FGFR2",1,1,1
"PI-3K cascade:FGFR3",1,1,1
"PI-3K cascade:FGFR4",1,1,1
"PI3K Cascade",1,1,1
"PI3K events in ERBB2 signaling",1,1,1
"PI3K events in ERBB4 signaling",1,1,1
"PI3K/AKT Signaling in Cancer",1,1,1
"PI3K/AKT activation",1,1,1
"PIP3 activates AKT signaling",1,1,1
"PIWI-interacting RNA (piRNA) biogenesis",1,1,1
"PKA activation",0.0317433427713468,1,0.0643154220602088
"PKA activation in glucagon signalling",0.0336954731286627,1,0.0681988514717933
"PKA-mediated phosphorylation of CREB",0.0336954731286627,1,0.0681988514717933
"PKA-mediated phosphorylation of key metabolic factors",1,1,1
"PKB-mediated events",1,1,1
"PKMTs methylate histone lysines",1,1,1
"PLC beta mediated events",0.0850239996131393,1,0.167328456968796
"PLC-gamma1 signalling",0.0663202201239543,1,0.131870635074671
"PLC-mediated hydrolysis of PIP2",1,1,1
"PLCG1 events in ERBB2 signaling",0.0682066660780656,1,0.135481392979887
"POLB-Dependent Long Patch Base Excision Repair",1,1,1
"POU5F1 (OCT4), SOX2, NANOG activate genes related to proliferation",1,1,1
"POU5F1 (OCT4), SOX2, NANOG repress genes related to differentiation",1,1,1
"PP2A-mediated dephosphorylation of key metabolic factors",1,1,1
"PPARA activates gene expression",1,1,1
"PRC2 methylates histones and DNA",1,1,1
"Packaging Of Telomere Ends",1,1,1
"Packaging of Eight RNA Segments",1,1,1
"Passive transport by Aquaporins",1,1,1
"Pausing and recovery of HIV elongation",1,1,1
"Pausing and recovery of Tat-mediated HIV elongation",1,1,1
"Pentose phosphate pathway (hexose monophosphate shunt)",1,1,1
"Peptide chain elongation",1,1,1
"Peptide hormone biosynthesis",1,1,1
"Peptide hormone metabolism",1,1,1
"Peptide ligand-binding receptors",1,1,1
"Peroxisomal lipid metabolism",1,1,1
"Phase 0 - rapid depolarisation",1,1,1
"Phase 1 - Functionalization of compounds",1,1,1
"Phase 1 - inactivation of fast Na+ channels",1,1,1
"Phase 2 - plateau phase",1,1,1
"Phase 3 - rapid repolarisation",1,1,1
"Phase 4 - resting membrane potential",1,1,1
"Phase II conjugation",1,1,1
"Phenylalanine and tyrosine catabolism",1,0.0219268894252078,0.0446612285699368
"Phosphate bond hydrolysis by NUDT proteins",1,1,1
"Phospholipase C-mediated cascade: FGFR1",0.0905660007131946,1,0.177688630447031
"Phospholipase C-mediated cascade; FGFR2",0.0942430995867486,1,0.1845257306166
"Phospholipase C-mediated cascade; FGFR3",0.0850239996131393,1,0.167328456968796
"Phospholipase C-mediated cascade; FGFR4",0.0887221869996733,1,0.174249230598279
"Phospholipid metabolism",1,0.261252677705691,0.464207257844467
"Phosphorylation of CD3 and TCR zeta chains",1,1,1
"Phosphorylation of Emi1",1,1,1
"Phosphorylation of proteins involved in G1/S transition by active Cyclin E:Cdk2 complexes",1,1,1
"Phosphorylation of proteins involved in the G2/M transition by Cyclin A:Cdc2 complexes",1,1,1
"Phosphorylation of the APC/C",1,1,1
"Physiological factors",1,1,1
"Pink/Parkin Mediated Mitophagy",1,1,1
"Plasmalogen biosynthesis",1,1,1
"Platelet Adhesion to exposed collagen",1,1,1
"Platelet Aggregation (Plug Formation)",1,1,1
"Platelet activation, signaling and aggregation",1,0.370915006079992,0.615249713790819
"Platelet calcium homeostasis",1,1,1
"Platelet degranulation",1,1,1
"Platelet homeostasis",1,0.151206760013739,0.286694141407404
"Platelet sensitization by LDL",1,1,1
"Plus-strand DNA synthesis",1,1,1
"Polo-like kinase mediated events",1,1,1
"Polymerase switching",1,1,1
"Polymerase switching on the C-strand of the telomere",1,1,1
"Positive epigenetic regulation of rRNA expression",1,1,1
"Post NMDA receptor activation events",1,1,1
"Post-Elongation Processing of Intron-Containing pre-mRNA",1,1,1
"Post-Elongation Processing of Intronless pre-mRNA",1,1,1
"Post-Elongation Processing of the Transcript",1,1,1
"Post-chaperonin tubulin folding pathway",0.0434006865169215,1,0.0873823360268114
"Post-transcriptional silencing by small RNAs",1,1,1
"Post-translational modification: synthesis of GPI-anchored proteins",1,1,1
"Post-translational protein modification",1,0.620639242509717,0.721519871925583
"Postsynaptic nicotinic acetylcholine receptors",1,1,1
"Potassium Channels",1,0.181749201147889,0.338580220944184
"Potassium transport channels",1,1,1
"Pre-NOTCH Expression and Processing",1,1,1
"Pre-NOTCH Processing in Golgi",1,1,1
"Pre-NOTCH Processing in the Endoplasmic Reticulum",1,1,1
"Pre-NOTCH Transcription and Translation",1,1,1
"Prefoldin mediated transfer of substrate  to CCT/TriC",0.0510987248634779,1,0.102452367954005
"Pregnenolone biosynthesis",1,1,1
"Presynaptic function of Kainate receptors",1,0.0414670137072649,0.0835765909727113
"Presynaptic nicotinic acetylcholine receptors",1,1,1
"Presynaptic phase of homologous DNA pairing and strand exchange",1,1,1
"Processing and activation of SUMO",1,1,1
"Processing of Capped Intron-Containing Pre-mRNA",1,1,1
"Processing of Capped Intronless Pre-mRNA",1,1,1
"Processing of DNA double-strand break ends",1,1,1
"Processing of Intronless Pre-mRNAs",1,1,1
"Processive synthesis on the C-strand of the telomere",1,1,1
"Processive synthesis on the lagging strand",1,1,1
"Programmed Cell Death",1,1,1
"Progressive trimming of alpha-1,2-linked mannose residues from Man9/8/7GlcNAc2 to produce Man5GlcNAc2",1,1,1
"Prolactin receptor signaling",1,1,1
"Proline catabolism",1,1,1
"Prolonged ERK activation events",1,1,1
"Propionyl-CoA catabolism",0.0100235042134125,3.79812346703449e-05,6.47631001367819e-07
"Prostacyclin signalling through prostacyclin receptor",1,0.0375886264206296,0.075918794617539
"Prostanoid ligand receptors",1,1,1
"Protein folding",0.11061755982829,1,0.214615361658763
"Protein repair",1,1,1
"Proton-coupled monocarboxylate transport",1,1,1
"Proton-coupled neutral amino acid transporters",1,1,1
"Proton/oligopeptide cotransporters",1,1,1
"Purine catabolism",1,1,1
"Purine metabolism",1,0.0663202201239543,0.131870635074671
"Purine ribonucleoside monophosphate biosynthesis",1,1,1
"Purine salvage",1,0.0258646575861762,0.0525705634674788
"Pyrimidine biosynthesis",1,1,1
"Pyrimidine catabolism",1,1,1
"Pyrimidine metabolism",1,1,1
"Pyrimidine salvage reactions",1,1,1
"Pyrophosphate hydrolysis",1,1,1
"Pyruvate metabolism",1,1,1
"Pyruvate metabolism and Citric Acid (TCA) cycle",0.0924063028186435,1,0.181114112229268
"RA biosynthesis pathway",1,1,1
"RAF activation",1,1,1
"RAF-independent MAPK1/3 activation",1,1,1
"RAF/MAP kinase cascade",1,1,1
"RHO GTPase Effectors",1,1,0.626632620810724
"RHO GTPases Activate Formins",1,1,1
"RHO GTPases Activate NADPH Oxidases",1,1,1
"RHO GTPases Activate ROCKs",1,1,1
"RHO GTPases Activate Rhotekin and Rhophilins",1,1,1
"RHO GTPases Activate WASPs and WAVEs",1,1,1
"RHO GTPases activate CIT",1,1,1
"RHO GTPases activate IQGAPs",1,1,1
"RHO GTPases activate KTN1",1,1,1
"RHO GTPases activate PAKs",1,1,1
"RHO GTPases activate PKNs",1,1,1
"RHO GTPases regulate CFTR trafficking",1,1,1
"RIG-I/MDA5 mediated induction of IFN-alpha/beta pathways",1,1,1
"RIP-mediated NFkB activation via ZBP1",1,1,1
"RIPK1-mediated regulated necrosis",1,1,1
"RMTs methylate histone arginines",1,1,1
"RNA Pol II CTD phosphorylation and interaction with CE",1,1,1
"RNA Polymerase I Chain Elongation",1,1,1
"RNA Polymerase I Promoter Clearance",1,1,1
"RNA Polymerase I Promoter Escape",1,1,1
"RNA Polymerase I Promoter Opening",1,1,1
"RNA Polymerase I Transcription",1,1,1
"RNA Polymerase I Transcription Initiation",1,1,1
"RNA Polymerase I Transcription Termination",1,1,1
"RNA Polymerase I, RNA Polymerase III, and Mitochondrial Transcription",1,1,1
"RNA Polymerase II HIV Promoter Escape",1,0.0850239996131393,0.167328456968796
"RNA Polymerase II Pre-transcription Events",1,0.121378642876277,0.234072944953666
"RNA Polymerase II Promoter Escape",1,0.0850239996131393,0.167328456968796
"RNA Polymerase II Transcription",1,0.194988904598032,0.360445927471117
"RNA Polymerase II Transcription Elongation",1,1,1
"RNA Polymerase II Transcription Initiation",1,0.0850239996131393,0.167328456968796
"RNA Polymerase II Transcription Initiation And Promoter Clearance",1,0.0850239996131393,0.167328456968796
"RNA Polymerase II Transcription Pre-Initiation And Promoter Opening",1,0.0850239996131393,0.167328456968796
"RNA Polymerase II Transcription Termination",1,1,1
"RNA Polymerase III Abortive And Retractive Initiation",1,1,1
"RNA Polymerase III Chain Elongation",1,1,1
"RNA Polymerase III Transcription",1,1,1
"RNA Polymerase III Transcription Initiation",1,1,1
"RNA Polymerase III Transcription Initiation From Type 1 Promoter",1,1,1
"RNA Polymerase III Transcription Initiation From Type 2 Promoter",1,1,1
"RNA Polymerase III Transcription Initiation From Type 3 Promoter",1,1,1
"RNA Polymerase III Transcription Termination",1,1,1
"RNF mutants show enhanced WNT signaling and proliferation",1,1,1
"RORA activates gene expression",1,1,1
"ROS, RNS production in response to bacteria",1,1,1
"RSK activation",1,1,1
"Rap1 signalling",1,1,1
"Ras activation uopn Ca2+ infux through NMDA receptor",1,1,1
"Reactions specific to the complex N-glycan synthesis pathway",1,1,1
"Reactions specific to the hybrid N-glycan synthesis pathway",1,1,1
"Receptor-ligand binding initiates the second proteolytic cleavage of Notch receptor",1,1,1
"Recognition and association of DNA glycosylase with site containing an affected purine",1,1,1
"Recognition and association of DNA glycosylase with site containing an affected pyrimidine",1,1,1
"Recognition of DNA damage by PCNA-containing replication complex",1,1,1
"Recruitment and ATM-mediated phosphorylation of repair and signaling proteins at DNA double strand breaks",1,1,1
"Recruitment of NuMA to mitotic centrosomes",1,1,1
"Recruitment of mitotic centrosome proteins and complexes",0.133778338723966,1,0.256181957274684
"Recycling of bile acids and salts",1,1,1
"Recycling of eIF2:GDP",1,1,1
"Recycling pathway of L1",1,1,1
"Reduction of cytosolic Ca++ levels",1,1,1
"Regulated Necrosis",1,1,1
"Regulated proteolysis of p75NTR",1,1,1
"Regulation by TREX1",1,1,1
"Regulation by c-FLIP",1,1,1
"Regulation of APC/C activators between G1/S and early anaphase",1,1,1
"Regulation of Apoptosis",1,1,1
"Regulation of Commissural axon pathfinding by Slit and Robo",1,1,1
"Regulation of Complement cascade",1,1,1
"Regulation of DNA replication",1,1,1
"Regulation of FZD by ubiquitination",1,1,1
"Regulation of Glucokinase by Glucokinase Regulatory Protein",1,1,1
"Regulation of HSF1-mediated heat shock response",1,1,1
"Regulation of Hypoxia-inducible Factor (HIF) by oxygen",1,1,1
"Regulation of IFNA signaling",1,1,1
"Regulation of IFNG signaling",1,1,1
"Regulation of Insulin-like Growth Factor (IGF) transport and uptake by Insulin-like Growth Factor Binding Proteins (IGFBPs)",1,1,1
"Regulation of KIT signaling",1,1,1
"Regulation of PAK-2p34 activity by PS-GAP/RHG10",1,1,1
"Regulation of PLK1 Activity at G2/M Transition",0.147747699679497,1,0.280690631710961
"Regulation of RAS by GAPs",1,1,1
"Regulation of TNFR1 signaling",1,1,1
"Regulation of actin dynamics for phagocytic cup formation",1,1,1
"Regulation of activated PAK-2p34 by proteasome mediated degradation",1,1,1
"Regulation of beta-cell development",1,1,1
"Regulation of cholesterol biosynthesis by SREBP (SREBF)",1,1,1
"Regulation of cytoskeletal remodeling and cell spreading by IPP complex components",1,1,1
"Regulation of gap junction activity",1,1,1
"Regulation of gene expression by Hypoxia-inducible Factor",1,1,1
"Regulation of gene expression in beta cells",1,1,1
"Regulation of gene expression in early pancreatic precursor cells",1,1,1
"Regulation of gene expression in endocrine-committed (NEUROG3+) progenitor cells",1,1,1
"Regulation of gene expression in late stage (branching morphogenesis) pancreatic bud precursor cells",1,1,1
"Regulation of innate immune responses to cytosolic DNA",1,1,1
"Regulation of insulin secretion",0.14947888489941,0.14947888489941,0.04306931709696
"Regulation of lipid metabolism by Peroxisome proliferator-activated receptor alpha (PPARalpha)",1,1,1
"Regulation of mRNA stability by proteins that bind AU-rich elements",1,1,1
"Regulation of mitotic cell cycle",1,1,1
"Regulation of necroptotic cell death",1,1,1
"Regulation of ornithine decarboxylase (ODC)",1,1,1
"Regulation of pyruvate dehydrogenase (PDH) complex",1,1,1
"Regulation of signaling by CBL",1,1,1
"Regulation of signaling by NODAL",1,1,1
"Regulation of thyroid hormone activity",1,1,1
"Relaxin receptors",1,1,1
"Release",1,1,1
"Release of Hh-Np from the secreting cell",1,1,1
"Release of apoptotic factors from the mitochondria",1,1,1
"Removal of aminoterminal propeptides from gamma-carboxylated proteins",1,1,1
"Removal of licensing factors from origins",1,1,1
"Removal of the Flap Intermediate",1,1,1
"Removal of the Flap Intermediate from the C-strand",1,1,1
"Repression of WNT target genes",1,1,1
"Reproduction",1,1,1
"Resolution of AP sites via the multiple-nucleotide patch replacement pathway",1,1,1
"Resolution of AP sites via the single-nucleotide replacement pathway",1,1,1
"Resolution of Abasic Sites (AP sites)",1,1,1
"Resolution of D-Loop Structures",1,1,1
"Resolution of D-loop Structures through Holliday Junction Intermediates",1,1,1
"Resolution of D-loop Structures through Synthesis-Dependent Strand Annealing (SDSA)",1,1,1
"Resolution of Sister Chromatid Cohesion",1,1,1
"Respiratory electron transport",1,0.180079902746295,0.335796467665329
"Respiratory electron transport, ATP synthesis by chemiosmotic coupling, and heat production by uncoupling proteins.",1,0.217674504292449,0.397032872908739
"Response of Mtb to phagocytosis",1,1,1
"Response to elevated platelet cytosolic Ca2+",1,1,1
"Response to metal ions",1,1,1
"Retinoid cycle disease events",1,1,1
"Retinoid metabolism and transport",1,1,1
"Retinoid metabolism disease events",1,1,1
"Retrograde neurotrophin signalling",1,1,1
"Reuptake of GABA",1,1,1
"Rev-mediated nuclear export of HIV RNA",1,1,1
"Reversal of alkylation damage by DNA dioxygenases",1,1,1
"Reverse Transcription of HIV RNA",1,1,1
"Reversible hydration of carbon dioxide",1,1,1
"Rhesus glycoproteins mediate ammonium transport.",1,1,1
"Rho GTPase cycle",1,1,1
"Ribosomal scanning and start codon recognition",1,1,1
"Role of Abl in Robo-Slit signaling",1,1,1
"Role of LAT2/NTAL/LAB on calcium mobilization",1,1,1
"Role of phospholipids in phagocytosis",1,0.117805306102412,0.227639700577465
"Role of second messengers in netrin-1 signaling",1,1,1
"S Phase",1,1,1
"S33 mutants of beta-catenin aren't phosphorylated",1,1,1
"S37 mutants of beta-catenin aren't phosphorylated",1,1,1
"S45 mutants of beta-catenin aren't phosphorylated",1,1,1
"SCF(Skp2)-mediated degradation of p27/p21",1,1,1
"SCF-beta-TrCP mediated degradation of Emi1",1,1,1
"SEMA3A-Plexin repulsion signaling by inhibiting Integrin adhesion",1,1,1
"SHC-mediated cascade:FGFR1",1,1,1
"SHC-mediated cascade:FGFR2",1,1,1
"SHC-mediated cascade:FGFR3",1,1,1
"SHC-mediated cascade:FGFR4",1,1,1
"SHC-related events triggered by IGF1R",1,1,1
"SHC1 events in EGFR signaling",1,1,1
"SHC1 events in ERBB2 signaling",1,1,1
"SHC1 events in ERBB4 signaling",1,1,1
"SIRT1 negatively regulates rRNA Expression",1,1,1
"SLBP Dependent Processing of Replication-Dependent Histone Pre-mRNAs",1,1,1
"SLBP independent Processing of Histone Pre-mRNAs",1,1,1
"SLC transporter disorders",1,1,1
"SLC-mediated transmembrane transport",0.0985308127498372,1,0.302295465707723
"SMAC binds to IAPs",1,1,1
"SMAC-mediated apoptotic response",1,1,1
"SMAC-mediated dissociation of IAP:caspase complexes",1,1,1
"SMAD2/3 MH2 Domain Mutants in Cancer",1,1,1
"SMAD2/3 Phosphorylation Motif Mutants in Cancer",1,1,1
"SMAD2/SMAD3:SMAD4 heterotrimer regulates transcription",1,1,1
"SMAD4 MH2 Domain Mutants in Cancer",1,1,1
"SOS-mediated signalling",1,1,1
"SRP-dependent cotranslational protein targeting to membrane",1,1,1
"STAT6-mediated induction of chemokines",1,1,1
"STING mediated induction of host immune responses",1,1,1
"SUMO E3 ligases SUMOylate target proteins",1,1,1
"SUMO is conjugated to E1 (UBA2:SAE1)",1,1,1
"SUMO is proteolytically processed",1,1,1
"SUMO is transferred from E1 to E2 (UBE2I, UBC9)",1,1,1
"SUMOylation",1,1,1
"SUMOylation of DNA damage response and repair proteins",1,1,1
"SUMOylation of DNA replication proteins",1,1,1
"SUMOylation of RNA binding proteins",1,1,1
"SUMOylation of chromatin organization proteins",1,1,1
"SUMOylation of transcription factors",1,1,1
"Scavenging by Class A Receptors",1,0.0375886264206296,0.075918794617539
"Scavenging by Class B Receptors",1,1,1
"Scavenging by Class F Receptors",1,1,1
"Scavenging by Class H Receptors",1,1,1
"Scavenging of heme from plasma",1,1,1
"SeMet incorporation into proteins",1,1,1
"Selenoamino acid metabolism",1,1,1
"Selenocysteine synthesis",1,1,1
"Sema3A PAK dependent Axon repulsion",1,1,1
"Sema4D in semaphorin signaling",1,1,1
"Sema4D induced cell migration and growth-cone collapse",1,1,1
"Sema4D mediated inhibition of cell attachment and migration",1,1,1
"Semaphorin interactions",1,1,1
"Senescence-Associated Secretory Phenotype (SASP)",1,1,1
"Sensing of DNA Double Strand Breaks",1,1,1
"Separation of Sister Chromatids",1,1,1
"Serine biosynthesis",1,1,1
"Serotonin Neurotransmitter Release Cycle",1,1,1
"Serotonin and melatonin biosynthesis",0.0100235042134125,1,0.0205464404333877
"Serotonin clearance from the synaptic cleft",1,1,1
"Serotonin receptors",1,1,1
"Sialic acid metabolism",0.0644301800837193,1,0.128245229064364
"Signal Transduction",0.179092128614823,0.0544835623284222,0.00767209834754504
"Signal amplification",1,0.0625365395385857,0.124605117279259
"Signal attenuation",1,1,1
"Signal regulatory protein (SIRP) family interactions",1,1,1
"Signal transduction by L1",1,1,1
"Signaling by Activin",1,1,1
"Signaling by BMP",1,1,1
"Signaling by EGFR",0.499784018265859,1,1
"Signaling by EGFR in Cancer",1,1,1
"Signaling by EGFRvIII in Cancer",1,1,1
"Signaling by ERBB2",0.482724974292148,1,1
"Signaling by ERBB4",1,1,0.63986440888171
"Signaling by FGFR",0.478375461625336,1,1
"Signaling by FGFR in disease",1,1,1
"Signaling by FGFR1",0.475090763041264,1,1
"Signaling by FGFR1 amplification mutants",1,1,1
"Signaling by FGFR1 fusion mutants",1,1,1
"Signaling by FGFR1 in disease",1,1,1
"Signaling by FGFR2",0.478375461625336,1,1
"Signaling by FGFR2 amplification mutants",1,1,1
"Signaling by FGFR2 in disease",1,1,1
"Signaling by FGFR3",0.475090763041264,1,1
"Signaling by FGFR3 in disease",1,1,1
"Signaling by FGFR4",0.475090763041264,1,1
"Signaling by FGFR4 in disease",1,1,1
"Signaling by GPCR",1,0.496217688804203,0.472439052678765
"Signaling by Hedgehog",0.241312105014242,1,0.433976148047583
"Signaling by Hippo",1,1,1
"Signaling by Insulin receptor",1,1,0.636511348197024
"Signaling by Interleukins",1,1,0.644747516896665
"Signaling by Leptin",1,1,0.626162432887562
"Signaling by Ligand-Responsive EGFR Variants in Cancer",1,1,1
"Signaling by NODAL",1,1,1
"Signaling by NOTCH",1,1,1
"Signaling by NOTCH1",1,1,1
"Signaling by NOTCH1 HD Domain Mutants in Cancer",1,1,1
"Signaling by NOTCH1 HD+PEST Domain Mutants in Cancer",1,1,1
"Signaling by NOTCH1 PEST Domain Mutants in Cancer",1,1,1
"Signaling by NOTCH1 in Cancer",1,1,1
"Signaling by NOTCH1 t(7;9)(NOTCH1:M1580_K2555) Translocation Mutant",1,1,1
"Signaling by NOTCH2",1,1,1
"Signaling by NOTCH3",1,1,1
"Signaling by NOTCH4",1,1,1
"Signaling by Overexpressed Wild-Type EGFR in Cancer",1,1,1
"Signaling by PDGF",0.509145587167161,1,1
"Signaling by Retinoic Acid",1,1,1
"Signaling by Rho GTPases",1,1,0.403871768452036
"Signaling by Robo receptor",1,1,1
"Signaling by SCF-KIT",1,1,0.638141438283388
"Signaling by TGF-beta Receptor Complex",1,1,1
"Signaling by TGF-beta Receptor Complex in Cancer",1,1,1
"Signaling by Type 1 Insulin-like Growth Factor 1 Receptor (IGF1R)",1,1,0.630342004110854
"Signaling by VEGF",1,1,0.642424225941758
"Signaling by WNT in cancer",1,1,1
"Signaling by Wnt",1,0.452690213698205,1
"Signaling by activated point mutants of FGFR1",1,1,1
"Signaling by activated point mutants of FGFR3",1,1,1
"Signaling by the B Cell Receptor (BCR)",1,1,1
"Signalling by NGF",0.590657002392585,1,1
"Signalling to ERK5",1,1,1
"Signalling to ERKs",1,1,0.626031291133691
"Signalling to RAS",1,1,0.626051973404821
"Signalling to STAT3",1,1,1
"Signalling to p38 via RIT and RIN",1,1,1
"Small interfering RNA (siRNA) biogenesis",1,0.0179741434369236,0.0366877667484241
"Smooth Muscle Contraction",1,1,1
"Sodium-coupled phosphate cotransporters",1,1,1
"Sodium-coupled sulphate, di- and tri-carboxylate transporters",1,1,1
"Sodium/Calcium exchangers",1,1,1
"Sodium/Proton exchangers",1,1,1
"Sperm Motility And Taxes",1,1,1
"Sperm:Oocyte Membrane Binding",1,1,1
"Sphingolipid de novo biosynthesis",0.0682066660780656,1,0.135481392979887
"Sphingolipid metabolism",0.00970285548245799,1,0.0383090276065369
"Spry regulation of FGF signaling",1,1,1
"Stabilization of p53",1,1,1
"Steroid hormones",1,1,1
"Sterols are 12-hydroxylated by CYP8B1",1,1,1
"Stimulation of the cell death response by PAK-2p34",1,1,1
"Stimuli-sensing channels",1,0.183415300510746,0.341352639179747
"Striated Muscle Contraction",1,1,1
"Sulfide oxidation to sulfate",1,1,1
"Sulfur amino acid metabolism",1,1,1
"Surfactant metabolism",1,1,1
"Switching of origins to a post-replicative state",1,1,1
"Syndecan interactions",1,1,1
"Synthesis And Processing Of GAG, GAGPOL Polyproteins",1,1,1
"Synthesis and interconversion of nucleotide di- and triphosphates",1,1,1
"Synthesis and processing of ENV and VPU",1,1,1
"Synthesis of (16-20)-hydroxyeicosatetraenoic acids (HETE)",1,1,1
"Synthesis of 12-eicosatetraenoic acid derivatives",1,1,1
"Synthesis of 15-eicosatetraenoic acid derivatives",1,1,1
"Synthesis of 5-eicosatetraenoic acids",1,1,1
"Synthesis of CL",1,1,1
"Synthesis of DNA",1,1,1
"Synthesis of Dolichyl-phosphate",1,1,1
"Synthesis of GDP-mannose",1,1,1
"Synthesis of Hepoxilins (HX) and Trioxilins (TrX)",1,1,1
"Synthesis of IP2, IP, and Ins in the cytosol",1,1,1
"Synthesis of IP3 and IP4 in the cytosol",1,1,1
"Synthesis of IPs in the ER lumen",1,1,1
"Synthesis of IPs in the nucleus",1,1,1
"Synthesis of Ketone Bodies",0.0140063662244823,1,0.02864967348992
"Synthesis of Leukotrienes (LT) and Eoxins (EX)",1,1,1
"Synthesis of Lipoxins (LX)",1,1,1
"Synthesis of PA",1,1,1
"Synthesis of PC",1,1,1
"Synthesis of PE",1,1,1
"Synthesis of PG",1,1,1
"Synthesis of PI",1,1,1
"Synthesis of PIPs at the ER membrane",1,1,1
"Synthesis of PIPs at the Golgi membrane",1,1,1
"Synthesis of PIPs at the early endosome membrane",1,1,1
"Synthesis of PIPs at the late endosome membrane",1,1,1
"Synthesis of PIPs at the plasma membrane",1,1,1
"Synthesis of PS",1,1,1
"Synthesis of Prostaglandins (PG) and Thromboxanes (TX)",1,1,1
"Synthesis of UDP-N-acetyl-glucosamine",1,1,1
"Synthesis of bile acids and bile salts",1,1,1
"Synthesis of bile acids and bile salts via 24-hydroxycholesterol",1,1,1
"Synthesis of bile acids and bile salts via 27-hydroxycholesterol",1,1,1
"Synthesis of bile acids and bile salts via 7alpha-hydroxycholesterol",1,1,1
"Synthesis of diphthamide-EEF2",1,1,1
"Synthesis of dolichyl-phosphate mannose",1,1,1
"Synthesis of dolichyl-phosphate-glucose",1,1,1
"Synthesis of epoxy (EET) and dihydroxyeicosatrienoic acids (DHET)",1,1,1
"Synthesis of glycosylphosphatidylinositol (GPI)",1,1,1
"Synthesis of pyrophosphates in the cytosol",1,1,1
"Synthesis of substrates in N-glycan biosythesis",0.112419645821486,1,0.217891307593925
"Synthesis of very long-chain fatty acyl-CoAs",1,1,1
"Synthesis of wybutosine at G37 of tRNA(Phe)",1,1,1
"Synthesis, secretion, and deacylation of Ghrelin",1,1,1
"Synthesis, secretion, and inactivation of Glucagon-like Peptide-1 (GLP-1)",1,1,1
"Synthesis, secretion, and inactivation of Glucose-dependent Insulinotropic Polypeptide (GIP)",1,1,1
"T41 mutants of beta-catenin aren't phosphorylated",1,1,1
"TAK1 activates NFkB by phosphorylation and activation of IKKs complex",1,1,1
"TCF dependent signaling in response to WNT",1,1,1
"TCF7L2 mutants don't bind CTBP",1,1,1
"TCR signaling",1,1,1
"TET1,2,3 and TDG demethylate DNA",1,1,1
"TGF-beta receptor signaling activates SMADs",1,1,1
"TGF-beta receptor signaling in EMT (epithelial to mesenchymal transition)",1,1,1
"TGFBR1 KD Mutants in Cancer",1,1,1
"TGFBR1 LBD Mutants in Cancer",1,1,1
"TGFBR2 Kinase Domain Mutants in Cancer",1,1,1
"TGFBR2 MSI Frameshift Mutants in Cancer",1,1,1
"TICAM1 deficiency - HSE",1,1,1
"TLR3 deficiency - HSE",1,1,1
"TNF receptor superfamily (TNFSF) members mediating non-canonical NF-kB pathway",1,1,1
"TNF signaling",1,1,1
"TNFR1-induced NFkappaB signaling pathway",1,1,1
"TNFR1-induced proapoptotic signaling",1,1,1
"TNFR1-mediated ceramide production",1,1,1
"TNFR2 non-canonical NF-kB pathway",1,1,1
"TNFs bind their physiological receptors",1,1,1
"TP53 Regulates Metabolic Genes",1,1,1
"TRAF3 deficiency - HSE",1,1,1
"TRAF3-dependent IRF activation pathway",1,1,1
"TRAF6 Mediated Induction of proinflammatory cytokines",1,1,1
"TRAF6 mediated IRF7 activation",1,1,1
"TRAF6 mediated IRF7 activation in TLR7/8 or 9 signaling",1,1,1
"TRAF6 mediated NF-kB activation",1,1,1
"TRAF6 mediated induction of NFkB and MAP kinases upon TLR7/8 or 9 activation",1,1,1
"TRAF6 mediated induction of TAK1 complex",1,1,1
"TRAIL  signaling",1,1,1
"TRIF-mediated TLR3/TLR4 signaling",1,1,1
"TRIF-mediated programmed cell death",1,1,1
"TRKA activation by NGF",1,1,1
"TRP channels",1,1,1
"TWIK related potassium channel (TREK)",1,1,1
"TWIK-related alkaline pH activated K+ channel (TALK)",1,1,1
"TWIK-related spinal cord K+ channel (TRESK)",1,1,1
"TWIK-releated acid-sensitive K+ channel (TASK)",1,1,1
"Tachykinin receptors bind tachykinins",1,1,1
"Tandem of pore domain in a weak inwardly rectifying K+ channels (TWIK)",1,1,1
"Tandem pore domain halothane-inhibited K+ channel (THIK)",1,1,1
"Tandem pore domain potassium channels",1,1,1
"Tat-mediated HIV elongation arrest and recovery",1,1,1
"Tat-mediated elongation of the HIV-1 transcript",1,1,1
"Telomere C-strand (Lagging Strand) Synthesis",1,1,1
"Telomere C-strand synthesis initiation",1,1,1
"Telomere Extension By Telomerase",1,1,1
"Telomere Maintenance",1,1,1
"Terminal pathway of complement",1,1,1
"Termination of O-glycan biosynthesis",1,1,1
"Termination of translesion DNA synthesis",1,1,1
"Tetrahydrobiopterin (BH4) synthesis, recycling, salvage and regulation",0.019952391992626,0.000169906435602273,7.66182174766082e-06
"The AIM2 inflammasome",1,1,1
"The IPAF inflammasome",1,1,1
"The NLRP1 inflammasome",1,1,1
"The NLRP3 inflammasome",1,1,1
"The activation of arylsulfatases",1,1,1
"The canonical retinoid cycle in rods (twilight vision)",1,1,1
"The citric acid (TCA) cycle and respiratory electron transport",0.285117939473027,0.285117939473027,0.148753433163787
"The fatty acid cycling model",1,1,1
"The phototransduction cascade",1,0.0663202201239543,0.131870635074671
"The proton buffering model",1,1,1
"The retinoid cycle in cones (daylight vision)",1,1,1
"The role of Nef in HIV-1 replication and disease pathogenesis",1,1,1
"Thrombin signalling through proteinase activated receptors (PARs)",1,0.0625365395385857,0.124605117279259
"Thromboxane signalling through TP receptor",1,0.0453306875054347,0.0911727262296192
"Thyroxine biosynthesis",1,1,1
"Tie2 Signaling",1,1,1
"Tight junction interactions",1,1,1
"Tolerance by Mtb to nitric oxide produced by macrophages",1,1,1
"Tolerance of reactive oxygen produced by macrophages",1,1,1
"Toll Like Receptor 10 (TLR10) Cascade",1,1,1
"Toll Like Receptor 2 (TLR2) Cascade",1,1,1
"Toll Like Receptor 3 (TLR3) Cascade",1,1,1
"Toll Like Receptor 4 (TLR4) Cascade",1,1,1
"Toll Like Receptor 5 (TLR5) Cascade",1,1,1
"Toll Like Receptor 7/8 (TLR7/8) Cascade",1,1,1
"Toll Like Receptor 9 (TLR9) Cascade",1,1,1
"Toll Like Receptor TLR1:TLR2 Cascade",1,1,1
"Toll Like Receptor TLR6:TLR2 Cascade",1,1,1
"Toll-Like Receptors Cascades",1,1,1
"Toxicity of botulinum toxin type A (BoNT/A)",1,1,1
"Toxicity of botulinum toxin type B (BoNT/B)",1,1,1
"Toxicity of botulinum toxin type C (BoNT/C)",1,1,1
"Toxicity of botulinum toxin type D (BoNT/D)",1,1,1
"Toxicity of botulinum toxin type E (BoNT/E)",1,1,1
"Toxicity of botulinum toxin type F (BoNT/F)",1,1,1
"Toxicity of botulinum toxin type G (BoNT/G)",1,1,1
"Toxicity of tetanus toxin (TeNT)",1,1,1
"Trafficking and processing of endosomal TLR",1,1,1
"Trafficking of AMPA receptors",1,1,1
"Trafficking of GluR2-containing AMPA receptors",1,1,1
"Trafficking of dietary sterols",1,1,1
"Trafficking of myristoylated proteins to the cilium",1,1,1
"Transcription from mitochondrial promoters",1,1,1
"Transcription of the HIV genome",1,0.124938353974861,0.240454123301584
"Transcription-Coupled Nucleotide Excision Repair (TC-NER)",1,1,1
"Transcriptional  activation of  cell cycle inhibitor p21",1,1,1
"Transcriptional Regulation by TP53",1,1,1
"Transcriptional activation of mitochondrial biogenesis",1,1,1
"Transcriptional activation of p53 responsive genes",1,1,1
"Transcriptional activity of SMAD2/SMAD3:SMAD4 heterotrimer",1,1,1
"Transcriptional regulation by small RNAs",1,1,1
"Transcriptional regulation of pluripotent stem cells",1,1,1
"Transcriptional regulation of white adipocyte differentiation",1,1,1
"Transfer of LPS from LBP carrier to CD14",1,1,1
"Transferrin endocytosis and recycling",1,1,1
"Translation",1,1,1
"Translation initiation complex formation",1,1,1
"Translesion Synthesis by POLH",1,1,1
"Translesion synthesis by POLI",1,1,1
"Translesion synthesis by POLK",1,1,1
"Translesion synthesis by REV1",1,1,1
"Translesion synthesis by Y family DNA polymerases bypasses lesions on DNA template",1,1,1
"Translocation of GLUT4 to the plasma membrane",1,1,1
"Translocation of ZAP-70 to Immunological synapse",1,1,1
"Transmembrane transport of small molecules",0.00506474929080039,0.111868674932257,0.00240066967968982
"Transmission across Chemical Synapses",0.00775248111212154,0.345711188916916,0.0102812593073553
"Transmission across Electrical Synapses",1,1,1
"Transport and synthesis of PAPS",1,1,1
"Transport of HA trimer, NA tetramer and M2 tetramer from the endoplasmic reticulum to the Golgi Apparatus",1,1,1
"Transport of Mature Transcript to Cytoplasm",1,1,1
"Transport of Mature mRNA Derived from an Intronless Transcript",1,1,1
"Transport of Mature mRNA derived from an Intron-Containing Transcript",1,1,1
"Transport of Mature mRNAs Derived from Intronless Transcripts",1,1,1
"Transport of Ribonucleoproteins into the Host Nucleus",1,1,1
"Transport of connexins along the secretory pathway",1,1,1
"Transport of connexons to the plasma membrane",1,1,1
"Transport of fatty acids",1,1,1
"Transport of gamma-carboxylated protein precursors from the endoplasmic reticulum to the Golgi apparatus",1,1,1
"Transport of glucose and other sugars, bile salts and organic acids, metal ions and amine compounds",0.0164886593900467,1,0.0629886463375936
"Transport of glycerol from adipocytes to the liver by Aquaporins",1,1,1
"Transport of inorganic cations/anions and amino acids/oligopeptides",1,1,1
"Transport of nucleosides and free purine and pyrimidine bases across the plasma membrane",1,1,1
"Transport of nucleotide sugars",1,1,1
"Transport of organic anions",1,1,1
"Transport of the SLBP Dependant Mature mRNA",1,1,1
"Transport of the SLBP independent Mature mRNA",1,1,1
"Transport of vitamins, nucleosides, and related molecules",1,1,1
"Transport to the Golgi and subsequent modification",1,1,1
"Triglyceride Biosynthesis",1,1,1
"Tristetraprolin (TTP, ZFP36) binds and destabilizes mRNA",1,1,1
"Truncations of AMER1 destabilize the destruction complex",1,1,1
"Tryptophan catabolism",1,1,1
"Type I hemidesmosome assembly",1,1,1
"Type II Na+/Pi cotransporters",1,1,1
"UNC93B1 deficiency - HSE",1,1,1
"Ubiquinol biosynthesis",1,1,1
"Ubiquitin Mediated Degradation of Phosphorylated Cdc25A",1,1,1
"Ubiquitin-dependent degradation of Cyclin D",1,1,1
"Ubiquitin-dependent degradation of Cyclin D1",1,1,1
"Unblocking of NMDA receptor, glutamate binding and activation",1,1,1
"Uncoating of the HIV Virion",1,1,1
"Uncoating of the Influenza Virion",1,1,1
"Unfolded Protein Response (UPR)",1,1,1
"Unwinding of DNA",1,1,1
"Uptake and actions of bacterial toxins",1,1,1
"Uptake and function of anthrax toxins",1,1,1
"Uptake and function of diphtheria toxin",1,1,1
"Urea cycle",1,1,1
"Utilization of Ketone Bodies",0.00602550365106466,1,0.012377555341348
"VEGF binds to VEGFR leading to receptor dimerization",1,1,1
"VEGF ligand-receptor interactions",1,1,1
"VEGFA-VEGFR2 Pathway",1,1,0.639512598241324
"VEGFR2 mediated cell proliferation",1,1,0.626012650689256
"VEGFR2 mediated vascular permeability",1,1,1
"Vasopressin regulates renal water homeostasis via Aquaporins",0.0831696133462608,0.0831696133462608,0.0135351827892098
"Vasopressin-like receptors",1,1,1
"Vesicle-mediated transport",1,0.540144373157316,1
"Vif-mediated degradation of APOBEC3G",1,1,1
"Viral Messenger RNA Synthesis",1,1,1
"Viral RNP Complexes in the Host Cell Nucleus",1,1,1
"Viral mRNA Translation",1,1,1
"Virus Assembly and Release",1,1,1
"Visual phototransduction",1,0.176731685785984,0.330194775905036
"Vitamin B1 (thiamin) metabolism",0.00802639961766404,1,0.0164702365588536
"Vitamin B2 (riboflavin) metabolism",1,1,1
"Vitamin B5 (pantothenate) metabolism",1,0.0238976424037276,0.0486238805016803
"Vitamin C (ascorbate) metabolism",1,1,1
"Vitamin D (calciferol) metabolism",1,1,1
"Vitamins",1,1,1
"Vitamins B6 activation to pyridoxal phosphate",1,1,1
"Voltage gated Potassium channels",1,1,1
"Vpr-mediated induction of apoptosis by mitochondrial outer membrane permeabilization",1,1,1
"Vpr-mediated nuclear import of PICs",1,1,1
"Vpu mediated degradation of CD4",1,1,1
"VxPx cargo-targeting to cilium",1,1,1
"WNT ligand biogenesis and trafficking",1,1,1
"WNT ligand secretion is abrogated by the PORCN inhibitor LGK974",1,1,1
"WNT mediated activation of DVL",1,1,1
"WNT5A-dependent internalization of FZD2, FZD5 and ROR2",1,1,1
"WNT5A-dependent internalization of FZD4",1,1,1
"XAV939 inhibits tankyrase, stabilizing AXIN",1,1,1
"XBP1(S) activates chaperone genes",1,1,1
"Xenobiotics",1,1,1
"YAP1- and WWTR1 (TAZ)-stimulated gene expression",1,1,1
"ZBP1(DAI) mediated induction of type I IFNs",1,1,1
"Zinc efflux and compartmentalization by the SLC30 family",1,1,1
"Zinc influx into cells by the SLC39 gene family",1,1,1
"Zinc transporters",1,1,1
"activated TAK1 mediates p38 MAPK activation",1,1,1
"alpha-linolenic (omega3) and linoleic (omega6) acid metabolism",1,1,1
"alpha-linolenic acid (ALA) metabolism",1,1,1
"betaKlotho-mediated ligand binding",1,1,1
"c-src mediated regulation of Cx43 function and closure of gap junctions",1,1,1
"cGMP effects",1,1,1
"cRNA Synthesis",1,1,1
"eNOS activation",1,1,1
"eNOS activation and regulation",0.0395296625282165,0.00070894037648006,7.07474793903569e-05
"mRNA 3'-end processing",1,1,1
"mRNA Capping",1,1,1
"mRNA Editing",0.00802639961766404,1,0.0164702365588536
"mRNA Editing: A to I Conversion",0.00402080956660245,1,0.00826833214079485
"mRNA Editing: C to U Conversion",1,1,1
"mRNA Splicing",1,1,1
"mRNA Splicing - Major Pathway",1,1,1
"mRNA Splicing - Minor Pathway",1,1,1
"mRNA decay by 3' to 5' exoribonuclease",1,1,1
"mRNA decay by 5' to 3' exoribonuclease",1,1,1
"mTOR signalling",1,1,1
"mTORC1-mediated signalling",1,1,1
"mitochondrial fatty acid beta-oxidation of saturated fatty acids",1,1,1
"mitochondrial fatty acid beta-oxidation of unsaturated fatty acids",1,1,1
"p130Cas linkage to MAPK signaling for integrins",1,1,1
"p38MAPK events",1,1,1
"p53-Dependent G1 DNA Damage Response",1,1,1
"p53-Dependent G1/S DNA damage checkpoint",1,1,1
"p53-Independent DNA Damage Response",1,1,1
"p53-Independent G1/S DNA damage checkpoint",1,1,1
"p75 NTR receptor-mediated signalling",1,1,1
"p75NTR negatively regulates cell cycle via SC1",1,1,1
"p75NTR recruits signalling complexes",1,1,1
"p75NTR regulates axonogenesis",1,1,1
"p75NTR signals via NF-kB",1,1,1
"phospho-PLA2 pathway",1,1,1
"phosphorylation site mutants of CTNNB1 are not targeted to the proteasome by the destruction complex",1,1,1
"snRNP Assembly",1,1,1
"t(4;14) translocations of FGFR3",1,1,1
"tRNA Aminoacylation",1,1,1
"tRNA modification in the mitochondrion",1,1,1
"tRNA modification in the nucleus and cytosol",1,1,1
"tRNA processing",1,0.249040764508625,0.445794628615725
"tRNA processing in the mitochondrion",1,0.0813116902835462,0.160351349773098
"tRNA processing in the nucleus",1,1,1
"trans-Golgi Network Vesicle Budding",1,0.132017093867885,0.253061915149158
"truncated APC mutants destabilize the destruction complex",1,1,1
"vRNA Synthesis",1,1,1
"vRNP Assembly",1,1,1
